%YAML 1.1
%TAG !u! tag:unity3d.com,2011:
--- !u!21 &2100000
Material:
  serializedVersion: 5
  m_ObjectHideFlags: 0
  m_PrefabParentObject: {fileID: 0}
  m_PrefabInternal: {fileID: 0}
  m_Name: Particles
  m_Shader: {fileID: 4800000, guid: 7682ab5e936afcb469d7fef4d5adf6eb, type: 3}
  m_ShaderKeywords: 
  m_LightmapFlags: 5
  m_CustomRenderQueue: -1
  m_SavedProperties:
    serializedVersion: 2
    m_TexEnvs:
      data:
        first:
          name: _MainTex
        second:
          m_Texture: {fileID: 2800000, guid: cf4a652edef34ad4997ac942a20ee05a, type: 3}
          m_Scale: {x: 1, y: 1}
          m_Offset: {x: 0, y: 0}
    m_Floats:
      data:
        first:
          name: _InvFade
        second: 1
      data:
        first:
          name: _TintStrength
        second: 1.24999988
      data:
        first:
          name: _CoreStrength
        second: 8
      data:
        first:
          name: _CutOutLightCore
        second: 0
    m_Colors:
      data:
        first:
          name: _Color
        second: {r: 1, g: 1, b: 1, a: 1}
      data:
        first:
          name: _TintColor
        second: {r: .0758621693, g: 1, b: 0, a: 1}
      data:
        first:
          name: _CoreColor
        second: {r: .316176474, g: 1, b: .316176474, a: 1}
