%YAML 1.1
%TAG !u! tag:unity3d.com,2011:
--- !u!21 &2100000
Material:
  serializedVersion: 6
  m_ObjectHideFlags: 0
  m_PrefabParentObject: {fileID: 0}
  m_PrefabInternal: {fileID: 0}
  m_Name: Crystalmiddlelittle
  m_Shader: {fileID: 4800000, guid: 3e99d6c2428116f498201f8ad9249877, type: 3}
  m_ShaderKeywords: _EMISSION _NODE_5690_ON
  m_LightmapFlags: 1
  m_CustomRenderQueue: 3000
  stringTagMap: {}
  m_SavedProperties:
    serializedVersion: 2
    m_TexEnvs:
    - first:
        name: _BumpMap
      second:
        m_Texture: {fileID: 0}
        m_Scale: {x: 1, y: 1}
        m_Offset: {x: 0, y: 0}
    - first:
        name: _DetailAlbedoMap
      second:
        m_Texture: {fileID: 0}
        m_Scale: {x: 1, y: 1}
        m_Offset: {x: 0, y: 0}
    - first:
        name: _DetailMask
      second:
        m_Texture: {fileID: 0}
        m_Scale: {x: 1, y: 1}
        m_Offset: {x: 0, y: 0}
    - first:
        name: _DetailNormalMap
      second:
        m_Texture: {fileID: 0}
        m_Scale: {x: 1, y: 1}
        m_Offset: {x: 0, y: 0}
    - first:
        name: _EmissionMap
      second:
        m_Texture: {fileID: 0}
        m_Scale: {x: 1, y: 1}
        m_Offset: {x: 0, y: 0}
    - first:
        name: _MainTex
      second:
        m_Texture: {fileID: 0}
        m_Scale: {x: 1, y: 1}
        m_Offset: {x: 0, y: 0}
    - first:
        name: _MetallicGlossMap
      second:
        m_Texture: {fileID: 0}
        m_Scale: {x: 1, y: 1}
        m_Offset: {x: 0, y: 0}
    - first:
        name: _OcclusionMap
      second:
        m_Texture: {fileID: 0}
        m_Scale: {x: 1, y: 1}
        m_Offset: {x: 0, y: 0}
    - first:
        name: _ParallaxMap
      second:
        m_Texture: {fileID: 0}
        m_Scale: {x: 1, y: 1}
        m_Offset: {x: 0, y: 0}
    - first:
        name: _node_1859_copy
      second:
        m_Texture: {fileID: 2800000, guid: ae0049a4a1783f946ac225627cf79c28, type: 3}
        m_Scale: {x: 1, y: 1}
        m_Offset: {x: 0, y: 0}
    - first:
        name: _node_1859_copy_copy
      second:
        m_Texture: {fileID: 2800000, guid: ae0049a4a1783f946ac225627cf79c28, type: 3}
        m_Scale: {x: 1, y: 1}
        m_Offset: {x: 0, y: 0}
    m_Floats:
    - first:
        name: _1
      second: 0.1
    - first:
        name: _BumpScale
      second: 1
    - first:
        name: _Cutoff
      second: 0.5
    - first:
        name: _DetailNormalMapScale
      second: 1
    - first:
        name: _DstBlend
      second: 0
    - first:
        name: _GlossMapScale
      second: 1
    - first:
        name: _Glossiness
      second: 0.5
    - first:
        name: _GlossyReflections
      second: 1
    - first:
        name: _Metallic
      second: 0
    - first:
        name: _Mode
      second: 0
    - first:
        name: _OcclusionStrength
      second: 1
    - first:
        name: _Parallax
      second: 0.02
    - first:
        name: _SmoothnessTextureChannel
      second: 0
    - first:
        name: _SpecularHighlights
      second: 1
    - first:
        name: _SrcBlend
      second: 1
    - first:
        name: _UVSec
      second: 0
    - first:
        name: _ZWrite
      second: 1
    - first:
        name: _density
      second: 1
    - first:
        name: _density_copy
      second: 1
    - first:
        name: _fadepower
      second: 3
    - first:
        name: _fadepower_copy
      second: 1
    - first:
        name: _fresnel_copy
      second: 0.5
    - first:
        name: _fresnel_copy_copy
      second: 0.5
    - first:
        name: _node_2987
      second: 2
    - first:
        name: _node_4670
      second: 0
    - first:
        name: _node_5690
      second: 1
    - first:
        name: _switchnubi
      second: 0
    - first:
        name: _switchnubi_copy
      second: 0
    - first:
        name: _switchopacity
      second: 0
    - first:
        name: _switchopacity_copy
      second: 1
    - first:
        name: _time
      second: 0
    - first:
        name: _time_copy
      second: 0.004
    - first:
        name: _u
      second: 1
    - first:
        name: _u_copy
      second: 1
    - first:
        name: _v
      second: 0.2
    - first:
        name: _v_copy
      second: 0.2
    m_Colors:
    - first:
        name: _Color
      second: {r: 1, g: 1, b: 1, a: 1}
    - first:
        name: _EmissionColor
      second: {r: 0, g: 0, b: 0, a: 1}
    - first:
        name: _node_1429_copy
      second: {r: 1, g: 0, b: 0.9310346, a: 1}
    - first:
        name: _node_1429_copy_copy
      second: {r: 1, g: 0, b: 0.9310346, a: 1}
    - first:
        name: _node_2263
      second: {r: 0, g: 7.7, b: 3.2, a: 0.8}
    - first:
        name: _node_2263_copy
      second: {r: 0, g: 7.7, b: 3.2, a: 0.8}
    - first:
        name: _node_940
      second: {r: 0, g: 0, b: 0, a: -0.1}
    - first:
        name: _node_940_copy
      second: {r: 0, g: 0, b: 0, a: -0.1}
