%YAML 1.1
%TAG !u! tag:unity3d.com,2011:
--- !u!21 &2100000
Material:
  serializedVersion: 6
  m_ObjectHideFlags: 0
  m_PrefabParentObject: {fileID: 0}
  m_PrefabInternal: {fileID: 0}
  m_Name: Tangram_G_MAT_001
  m_Shader: {fileID: 4800000, guid: 2e2277ee80ac1c246a56be74b9fefee7, type: 3}
  m_ShaderKeywords: 
  m_LightmapFlags: 1
  m_CustomRenderQueue: 2000
  stringTagMap: {}
  m_SavedProperties:
    serializedVersion: 2
    m_TexEnvs:
      data:
        first:
          name: _MainTex
        second:
          m_Texture: {fileID: 0}
          m_Scale: {x: 1, y: 1}
          m_Offset: {x: 0, y: 0}
      data:
        first:
          name: _BumpMap
        second:
          m_Texture: {fileID: 0}
          m_Scale: {x: 1, y: 1}
          m_Offset: {x: 0, y: 0}
      data:
        first:
          name: _DetailNormalMap
        second:
          m_Texture: {fileID: 0}
          m_Scale: {x: 1, y: 1}
          m_Offset: {x: 0, y: 0}
      data:
        first:
          name: _ParallaxMap
        second:
          m_Texture: {fileID: 0}
          m_Scale: {x: 1, y: 1}
          m_Offset: {x: 0, y: 0}
      data:
        first:
          name: _OcclusionMap
        second:
          m_Texture: {fileID: 0}
          m_Scale: {x: 1, y: 1}
          m_Offset: {x: 0, y: 0}
      data:
        first:
          name: _EmissionMap
        second:
          m_Texture: {fileID: 0}
          m_Scale: {x: 1, y: 1}
          m_Offset: {x: 0, y: 0}
      data:
        first:
          name: _DetailMask
        second:
          m_Texture: {fileID: 0}
          m_Scale: {x: 1, y: 1}
          m_Offset: {x: 0, y: 0}
      data:
        first:
          name: _DetailAlbedoMap
        second:
          m_Texture: {fileID: 0}
          m_Scale: {x: 1, y: 1}
          m_Offset: {x: 0, y: 0}
      data:
        first:
          name: _MetallicGlossMap
        second:
          m_Texture: {fileID: 0}
          m_Scale: {x: 1, y: 1}
          m_Offset: {x: 0, y: 0}
    m_Floats:
      data:
        first:
          name: _SrcBlend
        second: 1
      data:
        first:
          name: _DstBlend
        second: 0
      data:
        first:
          name: _Cutoff
        second: 0.5
      data:
        first:
          name: _Parallax
        second: 0.02
      data:
        first:
          name: _ZWrite
        second: 1
      data:
        first:
          name: _Glossiness
        second: 0.5
      data:
        first:
          name: _BumpScale
        second: 1
      data:
        first:
          name: _OcclusionStrength
        second: 1
      data:
        first:
          name: _DetailNormalMapScale
        second: 1
      data:
        first:
          name: _UVSec
        second: 0
      data:
        first:
          name: _Mode
        second: 0
      data:
        first:
          name: _Metallic
        second: 0
      data:
        first:
          name: _maintoselection
        second: 0
      data:
        first:
          name: _Wireframe
        second: 0
      data:
        first:
          name: _Trasparent
        second: 0
      data:
        first:
          name: _node_2483
        second: 4
      data:
        first:
          name: _outlinetangram
        second: 0.46
      data:
        first:
          name: _switch
        second: 0
    m_Colors:
      data:
        first:
          name: _EmissionColor
        second: {r: 0, g: 0, b: 0, a: 1}
      data:
        first:
          name: _Color
        second: {r: 0, g: 0.00067719334, b: 0.8000001, a: 1}
      data:
        first:
          name: _main
        second: {r: 0, g: 0, b: 0.175, a: 1}
      data:
        first:
          name: _node_4897
        second: {r: 0, g: 0, b: 0.3803922, a: 1}
      data:
        first:
          name: _selection
        second: {r: 0, g: 0, b: 0.1764706, a: 1}
      data:
        first:
          name: _colorwireframe
        second: {r: 1, g: 1, b: 0, a: 1}
      data:
        first:
          name: _
        second: {r: 0, g: 0, b: 0.3803922, a: 1}
      data:
        first:
          name: _outline
        second: {r: 1, g: 1, b: 1, a: 1}
      data:
        first:
          name: _PZ
        second: {r: 0, g: 0.17393516, b: 0.466, a: 1}
      data:
        first:
          name: _node_5660
        second: {r: 1, g: 1, b: 1, a: 1}
