%YAML 1.1
%TAG !u! tag:unity3d.com,2011:
--- !u!21 &2100000
Material:
  serializedVersion: 5
  m_ObjectHideFlags: 0
  m_PrefabParentObject: {fileID: 0}
  m_PrefabInternal: {fileID: 0}
  m_Name: Fog
  m_Shader: {fileID: 4800000, guid: 9ced8be6686666e4a9d4fd03e4ba2439, type: 3}
  m_ShaderKeywords: 
  m_LightmapFlags: 5
  m_CustomRenderQueue: -1
  m_SavedProperties:
    serializedVersion: 2
    m_TexEnvs:
      data:
        first:
          name: _MainTex
        second:
          m_Texture: {fileID: 2800000, guid: 042485894f64d1e4e9752d756dc0fac0, type: 3}
          m_Scale: {x: 1, y: 1}
          m_Offset: {x: 0, y: 0}
    m_Floats:
      data:
        first:
          name: _InvFade
        second: 3
      data:
        first:
          name: _TintStrength
        second: .464285791
      data:
        first:
          name: _CoreStrength
        second: 1.42857134
      data:
        first:
          name: _CutOutLightCore
        second: .0357142873
    m_Colors:
      data:
        first:
          name: _Color
        second: {r: .117241383, g: 1, b: 0, a: 1}
      data:
        first:
          name: _TintColor
        second: {r: 0, g: 1, b: 0, a: .219607845}
      data:
        first:
          name: _CoreColor
        second: {r: .426470578, g: 1, b: .477890462, a: .309803933}
