# Blender v2.74 (sub 0) OBJ File: 'HarpLab.blend'
# www.blender.org
mtllib lab_corn_out.mtl
o Wall_4x4.002_Plane.007
v -1.280794 3.586105 1.768137
v -1.280794 3.671558 1.768137
v -1.195341 3.586105 1.798133
v -1.195341 3.671558 1.798133
v -1.280794 3.586105 1.893101
v -1.280794 3.671558 1.893101
v -1.195341 3.586105 1.863105
v -1.195341 3.671558 1.863105
v -1.343896 3.586105 1.797784
v -1.343896 3.671558 1.797784
v -1.343896 3.671558 1.863454
v -1.343896 3.586105 1.863454
v -1.377768 3.586105 1.797784
v -1.377768 3.671558 1.797784
v -1.377768 3.671558 1.863454
v -1.377768 3.586105 1.863454
v -1.188652 3.485779 1.751755
v -1.188652 3.773807 1.751755
v -0.990787 3.485779 1.751755
v -0.990787 3.773807 1.751755
v -1.188652 3.485779 1.919752
v -1.188652 3.773807 1.919752
v -0.990787 3.485779 1.919752
v -0.990787 3.773807 1.919752
v -1.188652 3.581789 1.751755
v -1.188652 3.677798 1.751755
v -0.910787 3.677798 1.751755
v -0.910787 3.581789 1.751755
v -0.910787 3.677798 1.919752
v -0.910787 3.581789 1.919752
v -1.188652 3.677798 1.919752
v -1.188652 3.581789 1.919752
v -1.277242 3.677798 1.751755
v -1.277242 3.773807 1.751755
v -1.277242 3.581789 1.919752
v -1.277242 3.485779 1.919752
v -1.277242 3.773807 1.919752
v -1.277242 3.485779 1.751755
v -1.277242 3.581789 1.751755
v -1.277242 3.677798 1.919752
v -1.209232 3.393275 1.757887
v -1.209231 0.000212 0.669961
v -1.326232 3.393202 1.757864
v -1.209231 2.666878 -0.330038
v -1.209232 0.458844 1.491796
v -1.209231 3.400212 0.219962
v -1.209232 0.000212 1.669962
v -1.209231 0.402946 0.866517
v -1.209231 1.135329 0.090258
v -1.209231 2.472970 0.090258
v -1.209232 0.402946 1.437773
v -1.209231 3.042226 0.517201
v -1.209232 3.042226 1.437773
v -1.323185 3.600212 1.669113
v -1.326620 0.402946 0.866517
v -1.326427 1.135259 0.090258
v -1.326427 2.472899 0.090258
v -1.326620 3.042226 0.517201
v -1.326620 3.042226 1.437773
v -1.326427 0.402946 1.437773
v -1.326620 0.459872 0.917696
v -1.209231 0.459872 0.917696
v -1.209231 2.464953 0.178668
v -1.209231 1.108751 0.178668
v -1.209231 2.974901 0.568380
v -1.326620 2.974901 0.568380
v -1.326620 2.974901 1.490637
v -1.209232 2.974901 1.490646
v -1.326620 0.458847 1.491789
v -1.326620 1.108751 0.178668
v -1.326620 2.464953 0.178668
v -1.149159 0.000212 1.556260
v -1.149159 0.360168 0.933706
v -1.162309 0.855618 -0.233601
v -1.162309 0.130571 0.654376
v -1.162309 1.047310 0.048143
v -1.162309 0.400543 0.786136
v -1.162309 2.578117 -0.252294
v -1.162309 0.937343 -0.252294
v -1.162309 2.455945 0.012514
v -1.162309 1.124827 0.012514
v -1.162309 3.041474 0.430582
v -1.162309 3.290551 0.223771
v -1.162309 2.678108 -0.235561
v -1.162309 2.543191 0.056870
v -1.162309 3.089044 0.579711
v -1.162309 3.353395 0.360219
v -1.162309 3.353395 1.540456
v -1.162309 3.089044 1.369626
v -1.148965 0.268079 1.420143
v -1.148961 0.360098 1.282201
v -1.190595 0.389675 1.417801
v -1.326427 3.400283 1.669113
v -1.326232 0.000212 1.669962
v -1.209426 3.400283 1.669113
v -1.326232 0.000353 1.856417
v -1.212473 3.600282 1.669113
v -1.209232 0.000353 1.856417
v 1.691512 3.485779 -1.142280
v 1.691512 3.773807 -1.142280
v 1.691512 3.485779 -0.944416
v 1.691512 3.773807 -0.944416
v 1.859509 3.485779 -1.142280
v 1.859509 3.773807 -1.142280
v 1.859509 3.485779 -0.944416
v 1.859509 3.773807 -0.944416
v 1.691512 3.581788 -1.142280
v 1.691512 3.677798 -1.142280
v 1.691512 3.677798 -0.864415
v 1.691512 3.581788 -0.864415
v 1.859509 3.677798 -0.864415
v 1.859509 3.581788 -0.864415
v 1.859509 3.677798 -1.142280
v 1.859509 3.581788 -1.142280
v 1.691512 3.677798 -1.230870
v 1.691512 3.773807 -1.230870
v 1.859509 3.581788 -1.230870
v 1.859509 3.485779 -1.230870
v 1.859509 3.773807 -1.230870
v 1.691512 3.485779 -1.230870
v 1.691512 3.581788 -1.230870
v 1.859509 3.677798 -1.230870
v 1.720162 3.586105 -1.232997
v 1.720162 3.671558 -1.232997
v 1.750158 3.586105 -1.147544
v 1.750158 3.671558 -1.147544
v 1.845126 3.586105 -1.232997
v 1.845126 3.671558 -1.232997
v 1.815130 3.586105 -1.147544
v 1.815130 3.671558 -1.147544
v 1.749809 3.586105 -1.296100
v 1.749809 3.671558 -1.296100
v 1.815479 3.671558 -1.296100
v 1.815479 3.586105 -1.296100
v 1.749809 3.586105 -1.329972
v 1.749809 3.671558 -1.329972
v 1.815479 3.671558 -1.329972
v 1.815479 3.586105 -1.329972
v -1.077362 2.530720 -0.256506
v -1.043411 2.557404 -0.197484
v -1.053242 2.562200 -0.255642
v -1.054243 2.531872 -0.187955
v -1.077256 2.090602 -0.263598
v -1.054138 2.091754 -0.195047
v -1.043294 2.065880 -0.205403
v -1.053122 2.059123 -0.263749
v -1.071953 2.524546 -0.622291
v -1.047833 2.556025 -0.621427
v -1.071848 2.084428 -0.629383
v -1.047714 2.052948 -0.629533
v -0.292077 2.530720 -1.032782
v -0.234084 2.557404 -0.997101
v -0.291926 2.562200 -1.008647
v -0.224239 2.531872 -1.007647
v -0.299168 2.090602 -1.032887
v -0.231330 2.091754 -1.007751
v -0.242003 2.065880 -0.997219
v -0.300032 2.059123 -1.008768
v -0.657861 2.524546 -1.038190
v -0.657711 2.556025 -1.014056
v -0.664953 2.084428 -1.038295
v -0.665817 2.052948 -1.014176
v -0.485250 2.059123 -0.258949
v -0.486111 2.065880 -0.200762
v -0.486267 2.091754 -0.190248
v -0.485371 2.562200 -0.250844
v -0.238725 2.557404 -0.427014
v -0.229038 2.531872 -0.426870
v -0.879962 2.556025 -0.616628
v -0.879842 2.052948 -0.624734
v -0.670616 2.052948 -0.833400
v -0.662510 2.556025 -0.833280
v -0.236130 2.091754 -0.426975
v -0.486372 2.531872 -0.183156
v -0.246644 2.065880 -0.427131
v -0.486228 2.557404 -0.192842
v -0.296726 2.562200 -0.427871
v -0.304832 2.059123 -0.427991
v -1.077362 2.002529 -0.256506
v -1.043411 2.029212 -0.197484
v -1.053242 2.034008 -0.255642
v -1.054243 2.003680 -0.187955
v -1.077256 1.562411 -0.263598
v -1.054138 1.563562 -0.195047
v -1.043294 1.537688 -0.205403
v -1.053122 1.530931 -0.263749
v -1.071953 1.996354 -0.622291
v -1.047833 2.027833 -0.621427
v -1.071848 1.556236 -0.629383
v -1.047714 1.524757 -0.629533
v -0.292077 2.002529 -1.032782
v -0.234084 2.029212 -0.997101
v -0.291926 2.034008 -1.008647
v -0.224239 2.003680 -1.007647
v -0.299168 1.562411 -1.032887
v -0.231330 1.563562 -1.007751
v -0.242003 1.537688 -0.997219
v -0.300032 1.530931 -1.008768
v -0.657861 1.996354 -1.038190
v -0.657711 2.027833 -1.014056
v -0.664953 1.556236 -1.038295
v -0.665817 1.524757 -1.014176
v -0.485250 1.530931 -0.258949
v -0.486111 1.537688 -0.200762
v -0.486267 1.563562 -0.190248
v -0.485371 2.034008 -0.250844
v -0.238725 2.029212 -0.427014
v -0.229038 2.003680 -0.426870
v -0.879962 2.027833 -0.616628
v -0.879842 1.524757 -0.624734
v -0.670616 1.524757 -0.833400
v -0.662510 2.027833 -0.833280
v -0.236130 1.563562 -0.426975
v -0.486372 2.003680 -0.183156
v -0.246644 1.537688 -0.427131
v -0.486228 2.029212 -0.192842
v -0.296726 2.034008 -0.427871
v -0.304832 1.530931 -0.427991
v -1.077362 1.479247 -0.256506
v -1.043411 1.505930 -0.197484
v -1.053242 1.510727 -0.255642
v -1.054243 1.480398 -0.187955
v -1.077256 1.039129 -0.263598
v -1.054138 1.040280 -0.195047
v -1.043294 1.014407 -0.205403
v -1.053122 1.007649 -0.263749
v -1.071953 1.473072 -0.622291
v -1.047833 1.504551 -0.621427
v -1.071848 1.032954 -0.629383
v -1.047714 1.001475 -0.629533
v -0.292077 1.479247 -1.032782
v -0.234084 1.505930 -0.997101
v -0.291926 1.510727 -1.008647
v -0.224239 1.480398 -1.007647
v -0.299168 1.039129 -1.032887
v -0.231330 1.040280 -1.007751
v -0.242003 1.014407 -0.997219
v -0.300032 1.007649 -1.008768
v -0.657861 1.473072 -1.038190
v -0.657711 1.504551 -1.014056
v -0.664953 1.032954 -1.038295
v -0.665817 1.001475 -1.014176
v -0.485250 1.007649 -0.258949
v -0.486111 1.014407 -0.200762
v -0.486267 1.040280 -0.190248
v -0.485371 1.510727 -0.250844
v -0.238725 1.505930 -0.427014
v -0.229038 1.480398 -0.426870
v -0.879962 1.504551 -0.616628
v -0.879842 1.001475 -0.624734
v -0.670616 1.001475 -0.833400
v -0.662510 1.504551 -0.833280
v -0.236130 1.040280 -0.426975
v -0.486372 1.480398 -0.183156
v -0.246644 1.014407 -0.427131
v -0.486228 1.505930 -0.192842
v -0.296726 1.510727 -0.427871
v -0.304832 1.007649 -0.427991
v 1.621697 3.400141 -1.330043
v 1.621697 3.400141 -1.161623
v 1.621697 3.600141 -1.330043
v 0.174613 3.600141 -1.330038
v 0.574614 3.993990 -1.330038
v 2.622546 3.993990 -1.330043
v 1.622546 0.000141 -1.161623
v 0.819101 0.402875 -1.330603
v 0.042842 1.135259 -1.330603
v 0.042842 2.472899 -1.330603
v 0.469785 3.042155 -1.330603
v 1.390357 3.042155 -1.330603
v 1.390357 0.402875 -1.330603
v 1.621697 3.400141 -1.278623
v 1.809001 0.000283 -1.161623
v 0.174613 3.600141 -1.213604
v 0.574614 3.993990 -1.213604
v 2.622546 3.993990 -1.213610
v 1.622546 0.000141 -1.278623
v 0.042842 1.135259 -1.279011
v 0.042842 2.472899 -1.279011
v 0.469785 3.042155 -1.279011
v 1.390357 3.042155 -1.279011
v 1.390357 0.402875 -1.279011
v 1.508844 0.000141 -1.101550
v 0.886290 0.360098 -1.101550
v 0.897832 3.495475 -0.999547
v 0.897832 3.369843 -0.999547
v 1.764637 3.428248 -0.999547
v 1.674668 3.302616 -0.999547
v 1.506091 3.428248 -0.999547
v 1.506091 3.302616 -0.999547
v 1.764637 4.007113 -0.999547
v 1.506091 4.007113 -0.999547
v -0.377303 2.666808 -0.628873
v 0.174613 3.400141 -0.058019
v 1.623764 3.400141 0.969981
v 1.623765 3.600141 0.969981
v 0.576681 3.993990 0.619967
v 2.620834 3.993990 2.669962
v 0.622181 0.000141 0.356943
v 1.622546 0.000141 0.969706
v 1.508844 0.000141 0.967689
v 0.731490 0.000141 0.667689
v 0.886290 0.360098 0.667689
v -1.209038 0.836664 -0.330038
v -1.377768 3.400141 1.669113
v -1.377768 3.600141 1.669113
v -1.377768 3.600141 0.219967
v -1.377768 3.993990 0.619967
v -1.377459 3.993990 2.669962
v -1.377768 0.402593 0.866523
v -1.377768 1.135259 0.090259
v -1.377768 2.472899 0.090259
v -1.377768 3.042155 0.517201
v -1.377768 3.042155 1.437773
v -1.377768 0.402593 1.437779
v -1.258958 3.600141 0.219967
v -1.258958 3.993990 0.619967
v -1.261025 3.993990 2.669962
v -0.676721 0.836664 -0.330038
v -1.148965 0.000141 0.778906
v -1.046963 3.495475 0.945248
v -1.046963 3.369843 0.945248
v -1.046963 3.428248 1.812053
v -1.046963 3.302616 1.722084
v -1.046963 3.428248 1.553506
v -1.046963 3.302616 1.553506
v -1.046963 3.837618 1.812053
v -1.046963 3.837618 1.553506
v 1.076393 3.302616 1.722084
v 0.884242 3.382239 0.931973
v 1.076393 3.428248 1.553506
v 1.076393 3.302616 1.553506
v 1.076393 3.837618 1.553506
v 1.082036 3.837618 1.812053
v 1.082036 3.428248 1.812053
v 0.922029 3.600141 1.669113
v 0.176681 3.600141 0.219967
v 0.922029 3.400141 1.669113
v 0.922182 0.000141 1.669962
v 0.922182 0.000141 1.556260
v 0.622181 0.000141 0.778906
v 0.622181 0.360098 0.933706
v -1.261025 3.600141 -1.213604
v -1.377768 3.600141 -1.213604
v 1.771679 3.428248 1.123505
v 1.676066 3.302616 1.123505
v 1.507489 3.428248 0.968980
v 1.507489 3.302616 1.123505
v 1.771679 3.837618 1.123505
v 1.507489 3.837618 1.123505
v 1.676066 3.302616 -1.000288
v 1.507489 3.428248 -1.000288
v 1.507489 3.302616 -1.000288
v 0.899231 3.369843 -1.000288
v 1.507489 3.837618 -1.000288
v 1.766036 3.837618 -1.000288
v 1.766036 3.428248 -1.000288
v 0.922182 0.000283 1.856417
v 1.809001 0.000283 0.969706
v 1.622541 0.000141 1.669962
v 1.808996 0.000424 1.856417
v 1.808996 0.000283 1.669962
v 1.508839 0.000141 1.554802
v -0.377303 0.836664 -0.628860
v -0.676721 2.666808 -0.330702
v -0.124804 3.400141 0.219962
v 0.265078 0.000141 0.669962
v 2.465667 3.993990 -1.330043
v 2.465667 3.993990 -1.213609
v 2.464244 3.993990 2.512924
v -1.377768 3.993990 2.512924
v -1.260867 3.993990 2.512924
v 1.622541 0.000283 1.856417
v -1.377768 0.000141 1.669962
v -1.377768 0.000283 1.856417
v 1.622541 0.000141 -1.330038
v 1.808996 0.000283 -1.330038
v -1.209592 0.000000 2.669962
v -1.326592 0.000000 2.669962
v 0.921628 0.000000 2.669962
v 1.808442 0.000141 2.669962
v 1.621987 0.000000 2.669962
v -1.377768 0.000000 2.669962
v 2.622546 0.000141 -1.161622
v 2.622546 0.000141 -1.278623
v 2.622546 0.000141 0.969707
v 2.622541 0.000283 1.856417
v 2.622541 0.000141 1.669962
v 2.622541 0.000141 -1.330038
v 2.621987 0.000000 2.669963
v 1.372702 0.268128 0.967689
v 1.234866 0.360098 0.905522
v 0.922182 0.268079 1.420143
v 0.859959 0.360098 1.282201
v 1.710471 3.393204 -1.161623
v 0.622546 0.000141 -1.161622
v 1.710448 3.393131 -1.278623
v -0.377454 2.666807 -1.161622
v 1.444380 0.458774 -1.161623
v 0.172546 3.400141 -1.161622
v 0.819101 0.402875 -1.161622
v 0.042842 1.135259 -1.161622
v 0.042842 2.472899 -1.161622
v 1.390357 0.402875 -1.161623
v 0.469785 3.042155 -1.161622
v 1.390357 3.042155 -1.161623
v 1.621697 3.600141 -1.275576
v 0.819101 0.402875 -1.279011
v 0.870280 0.459801 -1.279011
v 0.870280 0.459801 -1.161622
v 0.131252 2.464883 -1.161622
v 0.131252 1.108680 -1.161622
v 0.520964 2.974830 -1.161622
v 0.520964 2.974830 -1.279011
v 1.443222 2.974830 -1.279011
v 1.443230 2.974830 -1.161623
v 1.444373 0.458777 -1.279011
v 0.131252 1.108680 -1.279011
v 0.131252 2.464883 -1.279011
v -0.281017 0.855548 -1.114700
v 0.606960 0.130501 -1.114700
v 0.000728 1.047240 -1.114700
v 0.738720 0.400473 -1.114700
v -0.299709 2.578047 -1.114700
v -0.299709 0.937273 -1.114700
v -0.034902 2.455875 -1.114700
v -0.034902 1.124757 -1.114700
v 0.383166 3.041403 -1.114700
v 0.176355 3.290480 -1.114700
v -0.282977 2.678037 -1.114700
v 0.009455 2.543121 -1.114700
v 0.532296 3.088973 -1.114700
v 0.312803 3.353324 -1.114700
v 1.493041 3.353324 -1.114700
v 1.322210 3.088973 -1.114700
v 1.372728 0.268008 -1.101356
v 1.234786 0.360027 -1.101352
v 1.370386 0.389605 -1.142986
v 1.621697 3.400212 -1.278818
v 1.809001 0.000283 -1.278623
v 1.621697 3.600212 -1.164864
v -0.377454 0.836594 -1.161429
v 0.731491 0.000071 -1.101356
vt 0.000000 0.000000
vt 0.154840 0.314183
vt 0.128990 0.314183
vt 0.128990 0.293865
vt 0.154841 0.293865
vt 0.109089 0.314183
vt 0.109089 0.293865
vt 0.099421 0.314183
vt 0.099421 0.293865
vt 0.637655 0.369766
vt 0.615020 0.369766
vt 0.615020 0.359980
vt 0.637655 0.359980
vt 0.682083 0.491732
vt 0.629699 0.491723
vt 0.629711 0.472747
vt 0.667014 0.472754
vt 0.637655 0.419439
vt 0.615020 0.419439
vt 0.615020 0.415047
vt 0.637655 0.415047
vt 0.637655 0.348185
vt 0.615020 0.348185
vt 0.615020 0.400868
vt 0.615020 0.389073
vt 0.637655 0.389073
vt 0.637655 0.400868
vt 0.615020 0.428961
vt 0.637655 0.428961
vt 0.637655 0.433354
vt 0.615020 0.433354
vt 0.666976 0.529680
vt 0.629674 0.529674
vt 0.629686 0.510698
vt 0.682070 0.510708
vt 0.615020 0.379287
vt 0.637655 0.379287
vt 0.637655 0.443140
vt 0.615020 0.443140
vt 0.615020 0.405261
vt 0.637655 0.405261
vt 0.612973 0.529670
vt 0.612985 0.510695
vt 0.615020 0.343792
vt 0.637655 0.343792
vt 0.612998 0.491720
vt 0.613010 0.472744
vt 0.552700 0.271791
vt 0.202595 0.615145
vt 0.202595 0.495629
vt 0.231203 0.512928
vt 0.231203 0.592918
vt 0.200824 0.664743
vt 0.200824 0.470185
vt 0.230892 0.449610
vt 0.227742 0.619929
vt 0.966624 1.052775
vt 0.966624 0.975881
vt 0.984493 0.975881
vt 0.984493 1.052775
vt 0.966624 0.883880
vt 0.966624 0.667079
vt 0.984493 0.667079
vt 0.984493 0.883880
vt 0.966624 0.544960
vt 0.984493 0.544960
vt 0.966624 0.503154
vt 0.984493 0.503154
vt 0.231727 0.614240
vt 0.231727 0.498456
vt 0.203546 0.498456
vt 0.203546 0.614240
vt 0.231727 0.659103
vt 0.203546 0.659103
vt 0.229409 0.613459
vt 0.229409 0.683358
vt 0.203508 0.683358
vt 0.203508 0.613459
vt 0.229409 0.429972
vt 0.229409 0.499871
vt 0.203508 0.499871
vt 0.203508 0.429972
vt 0.041122 -0.001529
vt 0.054096 -0.001605
vt 0.055615 0.362712
vt 0.042598 0.348057
vt 0.942648 0.490117
vt 0.942648 0.522588
vt 0.887283 0.520163
vt 0.887270 0.493840
vt 0.043146 0.994347
vt 0.043134 0.984960
vt 0.055795 0.984957
vt 0.055806 0.994344
vt 0.966624 0.437589
vt 0.984493 0.437589
vt 0.857524 0.687060
vt 0.857524 0.467031
vt 0.887310 0.474301
vt 0.887311 0.686467
vt 0.552700 0.674006
vt 0.552709 0.375608
vt 0.609122 0.375608
vt 0.609122 0.674006
vt 0.034071 0.543287
vt 0.034071 0.306689
vt 0.058525 0.306047
vt 0.058525 0.543287
vt 0.018625 0.543287
vt 0.018625 0.306689
vt 0.172042 0.571907
vt -0.041159 0.571730
vt -0.041158 0.400969
vt 0.172042 0.225378
vt 0.857532 0.495114
vt 0.857524 0.519548
vt 0.813059 0.519605
vt 0.813059 0.495991
vt 0.552700 0.649039
vt 0.552709 0.400575
vt 0.609122 0.400575
vt 0.609122 0.649039
vt 0.034082 0.542807
vt 0.034082 0.306115
vt 0.057784 0.306115
vt 0.057958 0.542808
vt 0.611723 0.443879
vt 0.550951 0.413273
vt 0.611554 0.382020
vt 0.033969 0.300742
vt 0.018558 0.300742
vt 0.018558 0.219973
vt 0.033969 0.219973
vt 0.019110 0.542807
vt 0.019110 0.306115
vt 0.551766 0.636486
vt 0.551766 0.391536
vt 0.611485 0.391536
vt 0.609580 0.637169
vt 0.058414 0.219973
vt 0.058414 0.300742
vt 0.551389 0.392738
vt 0.551389 0.638223
vt 0.609952 0.638223
vt 0.609952 0.392738
vt 0.609427 0.580233
vt 0.553236 0.580233
vt 0.553236 0.439151
vt 0.609427 0.439151
vt 0.042766 0.684644
vt 0.055412 0.672003
vt 0.608821 0.049434
vt 0.624915 0.049434
vt 0.624656 0.305850
vt 0.608821 0.305850
vt -0.041044 0.572240
vt 0.172575 0.572241
vt 0.172442 0.224406
vt -0.040851 0.401095
vt 0.966624 1.100093
vt 0.984493 1.100093
vt 0.813059 0.688023
vt 0.813059 0.467697
vt 0.231727 0.453593
vt 0.203546 0.453593
vt 0.942781 0.685465
vt 0.942781 0.496920
vt 0.966624 0.199485
vt 0.984494 0.199485
vt 0.984494 -0.017315
vt 0.966624 -0.017315
vt 0.966624 0.363411
vt 0.984494 0.363411
vt 0.984494 0.321604
vt 0.966624 0.321604
vt 0.966625 -0.186210
vt 0.984494 -0.186210
vt 0.984494 -0.233528
vt 0.966625 -0.233528
vt 0.966625 -0.109316
vt 0.984494 -0.109316
vt 0.887298 0.330411
vt 0.942781 0.330411
vt 0.942781 0.519748
vt 0.887298 0.545697
vt 0.813059 0.330411
vt 0.857532 0.330411
vt 0.857532 0.552982
vt 0.813059 0.552406
vt 0.966624 0.428976
vt 0.984493 0.428976
vt 0.611156 0.964891
vt 0.626341 0.964911
vt 0.627333 0.999990
vt 0.611190 0.999983
vt 0.292618 0.760049
vt 0.316154 0.760049
vt 0.316149 0.859545
vt 0.292613 0.859543
vt 0.292644 0.188531
vt 0.292647 0.126597
vt 0.316183 0.126596
vt 0.316180 0.188531
vt 0.316173 0.349644
vt 0.316159 0.642262
vt 0.292623 0.642262
vt 0.292637 0.349644
vt 0.781578 0.297949
vt 0.609653 0.297993
vt 0.609641 0.247987
vt 0.781565 0.247943
vt 0.292677 0.954290
vt 0.316136 0.954307
vt 0.318124 0.999972
vt 0.293276 0.999970
vt 0.803324 0.378813
vt 0.945208 0.378813
vt 0.945208 0.553089
vt 0.803324 0.441746
vt 0.626564 0.369025
vt 0.626594 0.603726
vt 0.611410 0.603726
vt 0.611381 0.369026
vt 0.613056 0.966011
vt 0.613128 0.893594
vt 0.623268 0.893593
vt 0.623162 0.966010
vt 0.613100 0.389034
vt 0.623239 0.389033
vt 0.623252 0.616294
vt 0.613112 0.616294
vt 0.623259 0.737188
vt 0.613119 0.737188
vt 0.611371 0.439856
vt 0.611371 0.420588
vt 0.621062 0.420588
vt 0.621062 0.439856
vt -0.004036 0.236417
vt 0.199934 0.283520
vt 0.199934 0.189631
vt -0.004036 0.191068
vt 0.550683 0.323864
vt 0.562843 0.329350
vt 0.562843 0.518326
vt 0.550682 0.518510
vt 0.609640 0.208249
vt 0.781565 0.208247
vt 0.609640 0.158201
vt 0.781565 0.158201
vt 0.801112 0.322461
vt 0.615304 0.321643
vt 0.615304 0.461074
vt 0.801112 0.596512
vt 0.790589 0.260555
vt 0.616353 0.299479
vt 0.616470 0.175457
vt 0.791493 0.204086
vt 0.142187 0.712141
vt 0.142187 0.768888
vt 0.121956 0.768888
vt 0.121956 0.712141
vt 0.564010 0.516933
vt 0.549983 0.516933
vt 0.549983 0.450082
vt 0.564149 0.460935
vt 0.541337 0.274424
vt 0.468368 0.201329
vt 0.541337 0.128122
vt 0.562843 0.571945
vt 0.550683 0.582462
vt 0.199934 0.056661
vt -0.004036 0.103684
vt -0.004036 0.149050
vt 0.199934 0.149021
vt 0.142262 0.768948
vt 0.142263 0.712160
vt 0.122018 0.712160
vt 0.945022 0.488385
vt 0.803324 0.473946
vt 0.803324 0.531641
vt 0.945022 0.519418
vt 0.611371 0.672120
vt 0.621062 0.672120
vt 0.132934 0.731591
vt 0.118629 0.745896
vt 0.104324 0.731591
vt 0.118629 0.717286
vt 0.142263 1.000361
vt 0.122018 1.000361
vt 0.623110 0.031687
vt 0.623225 0.110666
vt 0.613086 0.110666
vt 0.613006 0.031687
vt 0.632453 0.451695
vt 0.632453 0.521313
vt 0.611949 0.521313
vt 0.611949 0.451695
vt 0.121960 0.763350
vt 0.033685 0.768948
vt 0.033689 0.763389
vt 0.121956 0.692047
vt 0.121956 0.712277
vt 0.033685 0.712337
vt 0.033685 0.692107
vt 0.033698 0.750740
vt 0.121969 0.750700
vt 0.034519 0.261466
vt -0.049222 0.177609
vt 0.034577 0.093811
vt 0.033685 1.000361
vt 0.122018 0.692051
vt 0.564010 0.714628
vt 0.549983 0.720362
vt 0.121956 1.000150
vt 0.033685 1.000189
vt 0.626480 0.181792
vt 0.611354 0.181750
vt 0.142187 1.000150
vt 0.611959 0.000011
vt 0.627200 0.000010
vt 0.627318 0.081570
vt 0.612135 0.081527
vt 0.623164 0.999990
vt 0.612460 0.999990
vt 0.944940 0.636052
vt 0.803324 0.636052
vt 0.803324 0.578171
vt 0.944910 0.471070
vt 0.801112 0.322799
vt 0.615304 0.463353
vt 0.613090 0.207719
vt 0.623230 0.207719
vt 0.613002 0.000010
vt 0.623107 0.000010
vt 0.122017 0.763568
vt 0.033685 0.763568
vt 0.122017 0.751326
vt 0.033685 0.751326
vt 0.626552 0.728588
vt 0.611424 0.728579
vt 0.611141 0.890105
vt 0.626269 0.890114
vt 0.121794 0.995230
vt 0.033655 1.083410
vt 0.033717 0.906988
vt 0.941357 0.315965
vt 0.997872 0.332410
vt 0.997872 0.355834
vt 0.941357 0.372274
vt 0.997872 0.611295
vt 0.941357 0.627732
vt 0.941357 0.060786
vt 0.997872 0.077230
vt 0.201270 0.641540
vt 0.201270 0.448534
vt 0.233710 0.506638
vt 0.233710 0.663667
vt 0.057143 0.008485
vt 0.057143 0.096204
vt 0.047314 0.117761
vt 0.039871 0.102909
vt 0.039871 0.007919
vt 0.229529 0.618940
vt 0.229529 0.682741
vt 0.204828 0.682741
vt 0.204828 0.618940
vt 0.229529 0.494893
vt 0.204828 0.494893
vt 0.229529 0.431093
vt 0.204828 0.431093
vt 0.057143 0.137256
vt 0.057143 0.250296
vt 0.039871 0.253653
vt 0.292731 0.020138
vt 0.316189 0.020139
vt 0.057169 0.230843
vt 0.057169 0.160940
vt 0.039892 0.152516
vt 0.039892 0.230843
vt 0.223314 0.663672
vt 0.223359 0.448529
vt 0.233712 0.464555
vt 0.233677 0.639094
vt 0.229866 0.469612
vt 0.229866 0.643785
vt 0.203087 0.643785
vt 0.203087 0.469612
vt 0.229866 0.681800
vt 0.203087 0.681800
vt 0.229866 0.431598
vt 0.203087 0.431598
vn 0.331200 0.000000 -0.943600
vn 1.000000 0.000000 0.000000
vn 0.331200 0.000000 0.943600
vn 0.000000 -1.000000 0.000000
vn 0.000000 1.000000 0.000000
vn -0.425200 0.000000 0.905100
vn 0.000000 0.000000 1.000000
vn 0.000000 0.000000 -1.000000
vn -0.425200 0.000000 -0.905100
vn 0.768300 -0.640100 0.000000
vn -1.000000 0.000000 0.000000
vn 0.768300 0.640100 0.000000
vn 0.000000 -0.640100 0.768300
vn 0.000000 0.640100 0.768300
vn -0.943600 0.000000 0.331200
vn 0.943600 0.000000 0.331200
vn 0.905100 0.000000 -0.425200
vn -0.905100 0.000000 -0.425200
vn 0.958300 0.210500 -0.193500
vn 0.952400 0.236300 0.192400
vn 0.920600 -0.372400 0.117200
vn 0.919200 -0.378900 -0.106800
vn 0.961200 -0.260800 0.089400
vn 0.934100 0.132900 -0.331200
vn 0.915300 0.397000 -0.068600
vn 0.946800 0.071500 0.313600
vn -1.000000 -0.000000 0.000600
vn -1.000000 0.000400 -0.000600
vn -1.000000 0.000300 -0.000500
vn -1.000000 -0.000100 0.000800
vn -1.000000 0.000300 -0.001700
vn -1.000000 -0.000200 -0.002000
vn -1.000000 -0.000800 -0.001500
vn -1.000000 0.000300 -0.001600
vn -1.000000 -0.001400 -0.000700
vn -1.000000 -0.001600 -0.000400
vn -1.000000 -0.001500 -0.000200
vn -1.000000 -0.001400 -0.000300
vn 0.858600 0.502200 0.103200
vn 0.887500 0.041000 0.458900
vn 0.936400 -0.346900 0.052700
vn 0.945200 0.143500 0.293300
vn 0.853000 -0.433900 0.290100
vn 0.952800 0.119300 -0.279100
vn 0.837100 -0.473700 -0.273600
vn 0.043200 -0.996100 0.076900
vn -0.467800 -0.877600 0.104600
vn -0.333200 -0.703000 -0.628300
vn 0.012800 -0.932800 -0.360100
vn -0.946700 0.293500 0.132700
vn -0.711700 0.252500 -0.655500
vn -0.714800 -0.243200 -0.655700
vn -0.944800 -0.296000 0.140400
vn 0.270500 -0.725800 0.632500
vn -0.348600 -0.766300 0.539700
vn 0.007100 0.925900 -0.377800
vn -0.331400 0.704300 -0.627700
vn -0.470800 0.878700 0.078200
vn 0.027500 0.998400 0.047900
vn 0.911400 0.156600 0.380400
vn 0.788600 0.250800 -0.561400
vn 0.541900 0.769300 -0.338400
vn 0.621000 0.726600 0.294000
vn 0.092000 0.878600 -0.468500
vn 0.046900 0.998400 0.030000
vn -0.579900 0.251100 0.775000
vn -0.350000 0.768900 0.534900
vn 0.347900 -0.179800 0.920100
vn -0.576000 -0.264800 0.773300
vn 0.907100 -0.181500 0.379800
vn 0.786800 -0.264400 -0.557700
vn 0.160600 0.293500 -0.942400
vn 0.168300 -0.296000 -0.940200
vn -0.627300 -0.240600 -0.740600
vn -0.627400 0.249900 -0.737500
vn 0.546700 -0.766600 -0.336800
vn 0.118100 -0.877400 -0.464900
vn -0.611800 -0.703100 -0.362300
vn -0.611500 0.704600 -0.360100
vn -0.364700 -0.931100 -0.006400
vn -0.381800 0.924200 -0.012400
vn 0.348600 0.155000 0.924400
vn 0.622500 -0.724900 0.294700
vn 0.270000 0.727600 0.630600
vn 0.075100 -0.996100 0.046900
vn -0.946700 0.293600 0.132700
vn 0.027500 0.998500 0.047900
vn 0.348500 0.155000 0.924400
vn 0.000100 1.000000 -0.000000
vn 0.000000 1.000000 0.000100
vn 0.123800 0.943900 0.305900
vn 0.306200 0.944000 0.123000
vn 0.000000 -0.712600 0.701600
vn 0.000000 -0.925400 0.379100
vn -1.000000 -0.001100 -0.000600
vn 0.000000 0.664100 0.747700
vn 0.323500 0.631200 0.704900
vn 0.000000 0.957100 0.289900
vn 0.000000 -0.305800 0.952100
vn 0.352800 -0.277900 0.893500
vn 0.296800 0.630300 0.717300
vn 0.000000 0.707100 0.707100
vn -0.237500 0.823000 -0.515900
vn 0.000000 0.707100 -0.707100
vn 0.000000 -0.889400 0.457000
vn 0.241000 -0.832400 0.498900
vn 0.019900 0.711400 -0.702500
vn -0.325100 0.639000 -0.697100
vn -0.015400 0.999800 -0.012200
vn 0.015500 0.724900 -0.688700
vn -0.726700 0.655600 -0.205200
vn 0.001300 -0.998200 -0.059600
vn -0.016300 -0.999000 -0.041000
vn 0.108600 -0.988100 0.108600
vn 0.705600 0.631100 0.322100
vn 0.315100 0.430100 0.846000
vn 0.846600 0.429800 0.313900
vn 0.701800 -0.712300 -0.000900
vn 0.379500 -0.925200 -0.000500
vn 0.404400 -0.820800 0.403500
vn 0.893900 -0.282300 0.348100
vn 0.949800 -0.312900 -0.002000
vn 0.706500 0.707700 -0.001900
vn 0.717800 0.630000 0.296500
vn -0.707100 0.707100 0.000000
vn -0.514700 0.825100 -0.233000
vn 0.494400 -0.833600 0.246200
vn 0.450500 -0.892800 -0.000600
vn -0.066200 -0.995600 -0.066400
vn -0.040900 -0.999000 -0.016200
vn -0.701600 0.712300 0.020700
vn -0.059500 -0.998200 0.001300
vn 0.002600 -0.992900 -0.119000
vn -0.006900 0.000000 -1.000000
vn -0.118800 -0.992900 0.002600
vn -0.692400 0.721400 0.015800
vn -0.999900 -0.011100 -0.007700
vn -1.000000 0.007100 0.002300
vn -1.000000 0.008100 0.002400
vn 0.000000 0.453000 0.891500
vn 0.914800 -0.002700 -0.403800
vn 0.000600 0.008100 1.000000
vn 0.000600 0.007200 1.000000
vn 0.289900 0.957000 -0.000000
vn 0.891500 0.453000 -0.000000
vn 0.747700 0.664000 -0.000000
vn 0.000100 -0.000500 -1.000000
vn 0.000100 -0.000300 -1.000000
vn 0.000200 -0.000800 -1.000000
vn 0.000600 -0.000000 -1.000000
vn 0.000800 -0.000100 -1.000000
vn 0.002300 0.007100 -1.000000
vn 0.002400 0.008100 -1.000000
vn 0.000600 -0.283400 0.959000
vn 0.000600 -0.281000 0.959700
vn -0.000400 0.781200 0.624300
vn -0.000300 0.706800 0.707400
vn 0.000000 1.000000 0.001800
vn 0.000500 -0.316400 0.948600
vn 0.000400 0.423400 0.905900
vn 0.286000 0.522200 0.803400
vn 0.309900 -0.404000 0.860600
vn -0.000200 1.000000 -0.000000
vn -0.000400 1.000000 -0.000000
vn -0.000300 0.394100 0.919100
vn -0.000300 0.781000 0.624500
vn 0.000000 0.914000 0.405800
vn 0.092300 0.975700 0.198500
vn -0.001300 0.396000 0.918200
vn 0.000200 -0.316200 0.948700
vn 0.959600 -0.281500 0.000000
vn 0.478300 -0.878200 0.000000
vn 0.477900 -0.878400 0.000000
vn 0.959100 -0.283100 0.000000
vn 0.918200 0.396100 0.000000
vn 0.948700 -0.316200 0.000000
vn 0.447200 -0.894400 0.000000
vn 0.925400 0.379100 0.000000
vn 0.379100 -0.925400 0.000000
vn 0.937600 0.347700 0.000000
vn 0.948600 -0.316500 -0.000700
vn 0.447400 -0.894300 -0.000600
vn 0.259000 -0.957300 0.127900
vn 0.858200 -0.405500 0.314600
vn 0.000000 1.000000 0.000300
vn 0.799600 0.524000 0.293100
vn 0.906000 0.423300 -0.000100
vn -0.000000 -0.703600 0.710600
vn 0.000100 -0.894500 0.447000
vn 0.127000 -0.954300 0.270400
vn 0.296400 -0.630400 0.717400
vn 0.717300 -0.630000 0.297500
vn 0.717300 0.630000 0.297500
vn 0.296400 0.630400 0.717400
vn -0.000400 1.000000 -0.000400
vn 0.000000 1.000000 -0.000400
vn 0.000000 1.000000 -0.000200
vn -0.000400 1.000000 -0.000200
vn 0.710500 -0.703700 -0.000700
vn 0.695600 0.718400 -0.000700
vn 0.183600 0.978600 0.093000
vn -0.000300 1.000000 -0.000400
vn -0.000300 1.000000 0.000000
vn -0.000300 1.000000 -0.000200
vn -0.000100 1.000000 0.000000
vn 0.500200 0.865900 -0.000000
vn 0.500100 0.866000 -0.000000
vn 0.500400 0.865800 -0.000000
vn 0.499800 0.866200 -0.000000
vn -0.000700 1.000000 0.000000
vn -0.002000 0.866000 0.500000
vn -0.002000 0.866200 0.499700
vn -0.001000 1.000000 -0.000200
vn -0.000700 1.000000 0.000400
vn -0.000300 1.000000 0.000400
vn -0.000400 1.000000 0.000300
vn -0.000300 1.000000 0.000300
vn 0.000000 1.000000 0.000400
vn 0.000200 1.000000 0.000300
vn 0.000200 1.000000 -0.000200
vn 0.000200 1.000000 0.000000
vn 0.000200 1.000000 -0.000400
vn -0.005000 0.929100 0.369800
vn -0.005000 0.929500 0.368700
vn -0.005100 0.866400 0.499300
vn -0.005100 0.865300 0.501200
vn 0.001800 1.000000 0.000000
vn -0.000100 0.001100 -1.000000
vn 0.707100 0.707100 0.000000
vn 0.694000 0.719900 0.000000
vn 0.405900 0.913900 0.000000
vn 0.369200 0.929300 0.000000
vn 0.000400 1.000000 -0.000000
vn 0.001000 -0.894500 0.447100
vn 0.001000 -0.894300 0.447400
vn 0.001400 -0.878400 0.478000
vn 0.001400 -0.878100 0.478400
vn 1.000000 0.000400 -0.000400
vn 1.000000 0.000500 -0.000500
vn -0.869000 0.373000 -0.325000
vn -0.846100 0.363000 -0.390200
vn -0.395400 0.363600 -0.843500
vn -0.328600 0.373700 -0.867400
vn 1.000000 0.007200 -0.001000
vn 1.000000 0.008100 -0.001000
vn 0.000000 0.395000 -0.918700
vn -0.193500 0.210200 0.958300
vn -0.106800 -0.378900 0.919200
vn 0.117000 -0.372300 0.920700
vn 0.192000 0.236200 0.952500
vn 0.089400 -0.260800 0.961200
vn 0.313600 0.071500 0.946800
vn -0.068600 0.397000 0.915300
vn -0.331200 0.132900 0.934100
vn 0.794500 -0.607200 0.000000
vn 0.659800 0.751500 0.000000
vn 0.842700 -0.538300 0.000100
vn 0.292900 0.142800 0.945400
vn -0.279100 0.119000 0.952900
vn 0.458900 0.041000 0.887500
vn 0.103200 0.502200 0.858600
vn 0.052700 -0.346900 0.936400
vn -0.273600 -0.473700 0.837100
vn 0.289500 -0.433700 0.853300
vn -0.403800 -0.002700 0.914800
vn 0.000800 -1.000000 0.000000
vn -0.918700 0.395000 -0.000000
vn 0.936100 -0.143400 -0.321100
vn 0.952700 0.303800 -0.002900
vn 0.941300 0.012300 0.337400
vn 0.923700 -0.380600 0.042600
vn 0.000000 -0.607200 0.794500
vn 0.000000 0.751500 0.659800
vn 0.000100 -0.538300 0.842700
vn 0.829800 0.267800 0.489500
vn 0.863400 0.284900 0.416300
vn 0.798500 0.553100 0.237700
vn 0.797200 0.500300 0.337800
vn 0.919500 0.393000 -0.010800
vn 0.879300 0.010000 0.476200
vn 0.896100 -0.093600 -0.433900
vn 0.853500 -0.498900 0.150200
vn 0.685000 0.726700 0.051600
vn 0.747700 0.620900 -0.235400
vn 0.802100 0.481200 -0.353700
vn -0.000000 0.622400 0.782700
vn 0.828300 0.234600 -0.508800
vn -0.321100 -0.143400 0.936100
vn 0.042600 -0.380600 0.923700
vn 0.337400 0.012300 0.941300
vn -0.002900 0.303800 0.952700
vn 0.560400 0.828200 -0.000600
vn -0.000000 1.000000 -0.000600
vn 0.558700 0.829300 -0.000600
vn 0.476200 0.010000 0.879300
vn -0.010800 0.393000 0.919500
vn -0.433900 -0.093600 0.896100
vn 0.150200 -0.498900 0.853500
vn 0.919100 0.394100 -0.000300
vn 0.416300 0.284900 0.863400
vn 0.237700 0.553100 0.798500
vn 0.051600 0.726700 0.685000
vn 0.489500 0.267800 0.829800
vn 0.337800 0.500300 0.797200
vn -0.353700 0.481200 0.802100
vn -0.235400 0.620900 0.747700
vn 0.782700 0.622400 -0.000000
vn -0.508800 0.234600 0.828300
vn 0.938400 -0.345600 -0.004000
vn 0.946600 0.310700 -0.085800
vn 0.922100 0.263400 0.283300
vn 0.897200 -0.283800 0.338200
vn 0.852400 0.248900 0.459900
vn 0.827300 -0.199600 0.525000
vn 0.928600 0.303700 -0.213000
vn -0.000000 -1.000000 0.000800
vn 0.937200 -0.301200 -0.176000
vn -0.004000 -0.345600 0.938400
vn 0.338200 -0.283800 0.897200
vn 0.283300 0.263400 0.922100
vn -0.085800 0.310700 0.946600
vn 0.525000 -0.199600 0.827300
vn 0.459900 0.248900 0.852400
vn -0.213000 0.303700 0.928600
vn -0.176000 -0.301200 0.937200
vn -0.999900 0.016200 0.003500
vn 0.001300 0.016200 0.999900
vn 0.003500 0.016200 -0.999900
vn 0.999900 0.015200 -0.001000
usemtl ModularEnv
s off
f 2/1/1 4/1/1 3/1/1 1/1/1
f 4/1/2 8/1/2 7/1/2 3/1/2
f 8/2/3 6/3/3 5/4/3 7/5/3
f 1/1/4 3/1/4 7/1/4 5/1/4
f 6/1/5 8/1/5 4/1/5 2/1/5
f 5/1/4 12/1/4 9/1/4 1/1/4
f 2/1/5 10/1/5 11/1/5 6/1/5
f 6/3/6 11/6/6 12/7/6 5/4/6
f 9/1/4 12/1/4 16/1/4 13/1/4
f 11/1/5 10/1/5 14/1/5 15/1/5
f 12/7/7 11/6/7 15/8/7 16/9/7
f 10/1/8 9/1/8 13/1/8 14/1/8
f 1/1/9 9/1/9 10/1/9 2/1/9
f 25/1/8 28/1/8 19/1/8 17/1/8
f 28/10/10 30/11/10 23/12/10 19/13/10
f 30/14/7 32/15/7 21/16/7 23/17/7
f 26/18/4 31/19/4 40/20/4 33/21/4
f 17/22/4 19/13/4 23/12/4 21/23/4
f 22/24/5 24/25/5 20/26/5 18/27/5
f 32/28/5 25/29/5 39/30/5 35/31/5
f 31/19/11 26/18/11 25/29/11 32/28/11
f 24/32/7 22/33/7 31/34/7 29/35/7
f 29/35/7 31/34/7 32/15/7 30/14/7
f 20/26/12 24/25/12 29/36/12 27/37/12
f 27/37/2 29/36/2 30/11/2 28/10/2
f 18/1/8 20/1/8 27/1/8 26/1/8
f 26/1/8 27/1/8 28/1/8 25/1/8
f 35/31/11 39/30/11 38/38/11 36/39/11
f 37/40/11 34/41/11 33/21/11 40/20/11
f 31/34/7 22/33/7 37/42/7 40/43/7
f 25/1/8 17/1/8 38/1/8 39/1/8
f 17/22/4 21/23/4 36/44/4 38/45/4
f 22/24/5 18/27/5 34/41/5 37/40/5
f 21/16/7 32/15/7 35/46/7 36/47/7
f 18/1/8 26/1/8 33/1/8 34/1/8
f 107/48/11 99/48/11 101/48/11 110/48/11
f 110/48/13 101/48/13 105/48/13 112/48/13
f 112/48/2 105/48/2 103/48/2 114/48/2
f 108/48/4 115/48/4 122/48/4 113/48/4
f 99/48/4 103/48/4 105/48/4 101/48/4
f 104/48/5 100/48/5 102/48/5 106/48/5
f 114/48/5 117/48/5 121/48/5 107/48/5
f 113/48/8 114/48/8 107/48/8 108/48/8
f 106/48/2 111/48/2 113/48/2 104/48/2
f 111/48/2 112/48/2 114/48/2 113/48/2
f 102/48/14 109/48/14 111/48/14 106/48/14
f 109/48/7 110/48/7 112/48/7 111/48/7
f 100/48/11 108/48/11 109/48/11 102/48/11
f 108/48/11 107/48/11 110/48/11 109/48/11
f 117/48/8 118/48/8 120/48/8 121/48/8
f 119/48/8 122/48/8 115/48/8 116/48/8
f 113/48/2 122/48/2 119/48/2 104/48/2
f 107/48/11 121/48/11 120/48/11 99/48/11
f 99/48/4 120/48/4 118/48/4 103/48/4
f 104/48/5 119/48/5 116/48/5 100/48/5
f 103/48/2 118/48/2 117/48/2 114/48/2
f 100/48/11 116/48/11 115/48/11 108/48/11
f 124/48/15 123/48/15 125/48/15 126/48/15
f 126/48/7 125/48/7 129/48/7 130/48/7
f 130/48/16 129/48/16 127/48/16 128/48/16
f 123/48/4 127/48/4 129/48/4 125/48/4
f 128/48/5 124/48/5 126/48/5 130/48/5
f 127/48/4 123/48/4 131/48/4 134/48/4
f 124/48/5 128/48/5 133/48/5 132/48/5
f 128/48/17 127/48/17 134/48/17 133/48/17
f 131/48/4 135/48/4 138/48/4 134/48/4
f 133/48/5 137/48/5 136/48/5 132/48/5
f 134/48/2 138/48/2 137/48/2 133/48/2
f 132/48/11 136/48/11 135/48/11 131/48/11
f 123/48/18 124/48/18 132/48/18 131/48/18
s 1
f 87/49/19 88/50/20 89/51/21 86/52/22
f 75/53/23 74/54/24 76/55/25 77/56/26
f 59/57/27 58/58/28 66/59/29 67/60/30
f 57/61/31 56/62/32 70/63/33 71/64/34
f 56/62/32 55/65/35 61/66/36 70/63/33
f 58/58/28 57/61/31 71/64/34 66/59/29
f 55/65/35 60/67/37 69/68/38 61/66/36
f 77/69/26 76/70/25 49/71/39 48/72/40
f 75/73/23 77/69/26 48/72/40 42/74/41
f 89/75/21 88/76/20 95/77/42 53/78/43
f 88/1/20 87/1/19 46/1/44 95/1/42
f 87/79/19 86/80/22 52/81/45 46/82/44
f 86/80/22 89/75/21 53/78/43 52/81/45
f 163/48/46 146/48/47 150/48/48 170/48/49
f 139/48/50 147/48/51 149/48/52 143/48/53
f 163/48/46 164/48/54 145/48/55 146/48/47
f 169/48/56 148/48/57 141/48/58 166/48/59
f 168/48/60 154/48/61 152/48/62 167/48/63
f 167/48/63 152/48/62 153/48/64 177/48/65
f 139/48/50 142/48/66 140/48/67 141/48/58
f 164/48/54 165/48/68 144/48/69 145/48/55
f 143/48/53 146/48/47 145/48/55 144/48/69
f 150/48/48 146/48/47 143/48/53 149/48/52
f 141/48/58 148/48/57 147/48/51 139/48/50
f 139/48/50 143/48/53 144/48/69 142/48/66
f 173/48/70 156/48/71 154/48/61 168/48/60
f 151/48/72 155/48/73 161/48/74 159/48/75
f 151/48/72 153/48/64 152/48/62 154/48/61
f 155/48/73 156/48/71 157/48/76 158/48/77
f 162/48/78 161/48/74 155/48/73 158/48/77
f 153/48/64 151/48/72 159/48/75 160/48/79
f 151/48/72 154/48/61 156/48/71 155/48/73
f 169/48/56 170/48/49 150/48/48 149/48/52 147/48/51 148/48/57
f 159/48/75 161/48/74 162/48/78 171/48/80 172/48/81 160/48/79
f 144/48/69 165/48/68 174/48/82 142/48/66
f 157/48/76 156/48/71 173/48/70 175/48/83
f 140/48/67 176/48/84 166/48/59 141/48/58
f 142/48/66 174/48/82 176/48/84 140/48/67
f 160/48/79 172/48/81 177/48/65 153/48/64
f 158/48/77 157/48/76 175/48/83 178/48/85
f 158/48/77 178/48/85 171/48/80 162/48/78
f 170/48/49 171/48/80 178/48/85 163/48/46
f 163/48/46 178/48/85 175/48/83 164/48/54
f 164/48/54 175/48/83 173/48/70 165/48/68
f 168/48/60 174/48/82 165/48/68 173/48/70
f 167/48/63 176/48/84 174/48/82 168/48/60
f 177/48/65 166/48/59 176/48/84 167/48/63
f 166/48/59 177/48/65 172/48/81 169/48/56
f 203/48/46 186/48/47 190/48/48 210/48/49
f 179/48/86 187/48/51 189/48/52 183/48/53
f 203/48/46 204/48/54 185/48/55 186/48/47
f 209/48/56 188/48/57 181/48/58 206/48/87
f 208/48/60 194/48/61 192/48/62 207/48/63
f 207/48/63 192/48/62 193/48/64 217/48/65
f 179/48/86 182/48/66 180/48/67 181/48/58
f 204/48/54 205/48/68 184/48/69 185/48/55
f 183/48/53 186/48/47 185/48/55 184/48/69
f 190/48/48 186/48/47 183/48/53 189/48/52
f 181/48/58 188/48/57 187/48/51 179/48/86
f 179/48/86 183/48/53 184/48/69 182/48/66
f 213/48/70 196/48/71 194/48/61 208/48/60
f 191/48/72 195/48/73 201/48/74 199/48/75
f 191/48/72 193/48/64 192/48/62 194/48/61
f 195/48/73 196/48/71 197/48/76 198/48/77
f 202/48/78 201/48/74 195/48/73 198/48/77
f 193/48/64 191/48/72 199/48/75 200/48/79
f 191/48/72 194/48/61 196/48/71 195/48/73
f 209/48/56 210/48/49 190/48/48 189/48/52 187/48/51 188/48/57
f 199/48/75 201/48/74 202/48/78 211/48/80 212/48/81 200/48/79
f 184/48/69 205/48/68 214/48/88 182/48/66
f 197/48/76 196/48/71 213/48/70 215/48/83
f 180/48/67 216/48/84 206/48/87 181/48/58
f 182/48/66 214/48/88 216/48/84 180/48/67
f 200/48/79 212/48/81 217/48/65 193/48/64
f 198/48/77 197/48/76 215/48/83 218/48/85
f 198/48/77 218/48/85 211/48/80 202/48/78
f 210/48/49 211/48/80 218/48/85 203/48/46
f 203/48/46 218/48/85 215/48/83 204/48/54
f 204/48/54 215/48/83 213/48/70 205/48/68
f 208/48/60 214/48/88 205/48/68 213/48/70
f 207/48/63 216/48/84 214/48/88 208/48/60
f 217/48/65 206/48/87 216/48/84 207/48/63
f 206/48/87 217/48/65 212/48/81 209/48/56
f 243/48/46 226/48/47 230/48/48 250/48/49
f 219/48/50 227/48/51 229/48/52 223/48/53
f 243/48/46 244/48/54 225/48/55 226/48/47
f 249/48/56 228/48/57 221/48/58 246/48/59
f 248/48/60 234/48/61 232/48/62 247/48/63
f 247/48/63 232/48/62 233/48/64 257/48/65
f 219/48/50 222/48/66 220/48/67 221/48/58
f 244/48/54 245/48/68 224/48/69 225/48/55
f 223/48/53 226/48/47 225/48/55 224/48/69
f 230/48/48 226/48/47 223/48/53 229/48/52
f 221/48/58 228/48/57 227/48/51 219/48/50
f 219/48/50 223/48/53 224/48/69 222/48/66
f 253/48/70 236/48/71 234/48/61 248/48/60
f 231/48/72 235/48/73 241/48/74 239/48/75
f 231/48/72 233/48/64 232/48/62 234/48/61
f 235/48/73 236/48/71 237/48/76 238/48/77
f 242/48/78 241/48/74 235/48/73 238/48/77
f 233/48/64 231/48/72 239/48/75 240/48/79
f 231/48/72 234/48/61 236/48/71 235/48/73
f 249/48/56 250/48/49 230/48/48 229/48/52 227/48/51 228/48/57
f 239/48/75 241/48/74 242/48/78 251/48/80 252/48/81 240/48/79
f 224/48/69 245/48/68 254/48/82 222/48/66
f 237/48/76 236/48/71 253/48/70 255/48/83
f 220/48/67 256/48/84 246/48/59 221/48/58
f 222/48/66 254/48/82 256/48/84 220/48/67
f 240/48/79 252/48/81 257/48/65 233/48/64
f 238/48/77 237/48/76 255/48/83 258/48/85
f 238/48/77 258/48/85 251/48/80 242/48/78
f 250/48/49 251/48/80 258/48/85 243/48/46
f 243/48/46 258/48/85 255/48/83 244/48/54
f 244/48/54 255/48/83 253/48/70 245/48/68
f 248/48/60 254/48/82 245/48/68 253/48/70
f 247/48/63 256/48/84 254/48/82 248/48/60
f 257/48/65 246/48/59 256/48/84 247/48/63
f 246/48/59 257/48/65 252/48/81 249/48/56
f 287/48/8 288/48/8 290/48/8 286/48/8 285/48/8 289/48/8 292/48/8 291/48/8
f 369/83/4 276/84/4 298/85/4 370/86/4
f 303/87/89 342/88/90 394/89/91 392/90/92
f 371/91/4 372/92/4 318/93/4 309/94/4
f 307/48/93 316/48/93 317/48/94 308/48/94
f 60/67/37 94/95/95 96/96/95 69/68/38
f 90/97/96 393/98/97 394/99/91 91/100/98
f 323/101/99 335/102/100 334/103/101 327/104/102
f 327/48/102 334/48/101 333/48/103 328/48/104
f 324/105/105 329/106/106 335/107/100 323/108/99
f 325/48/107 331/48/108 330/48/109 321/48/110
f 330/48/109 331/48/108 347/48/111
f 328/48/104 333/48/103 331/48/108 325/48/107
f 326/109/112 332/110/113 329/106/106 324/105/105
f 372/111/4 317/112/94 297/113/114 370/114/4
f 391/115/115 393/116/97 340/117/116 301/118/117
f 274/48/118 275/48/119 297/48/114 337/48/120
f 317/48/94 316/48/93 337/48/120 297/48/114
f 345/119/121 357/120/122 356/121/123 349/122/124
f 349/48/124 356/48/123 355/48/125 350/48/126
f 333/48/103 350/48/126 347/48/111 331/48/108
f 333/48/103 334/48/101 349/48/124 350/48/126
f 346/123/127 351/124/128 357/125/122 345/126/121
f 332/127/113 330/128/129 348/129/130
f 329/130/106 332/131/113 348/132/130 346/133/127
f 350/48/126 355/48/125 352/48/131 347/48/111
f 348/134/130 353/135/132 351/124/128 346/123/127
f 322/136/133 330/137/129 332/138/113 326/139/112
f 321/48/110 330/48/109 322/48/134
f 329/130/106 346/133/127 345/140/121 335/141/100
f 330/142/129 354/143/135 353/144/132 348/145/130
f 334/146/101 335/147/100 345/148/121 349/149/124
f 318/93/4 372/92/4 370/150/4 298/151/4
f 308/152/94 317/153/94 372/154/4 371/155/4
f 275/156/119 369/157/4 370/158/4 297/159/114
f 330/48/109 285/48/136 354/48/137
f 392/90/92 394/89/91 393/116/97 391/115/115
f 93/160/138 59/57/27 67/60/30 43/161/139
f 90/97/96 72/162/140 340/163/116 393/98/97
f 74/1/24 75/1/23 42/1/41 304/1/141
f 76/70/25 74/164/24 304/165/141 49/71/39
f 73/166/90 91/100/98 394/99/91 342/167/90
f 402/168/7 412/169/7 411/170/7 403/171/7
f 404/172/7 399/173/7 410/174/7 401/175/7
f 406/176/7 416/177/7 395/178/142 260/179/143
f 405/180/7 413/181/7 416/177/7 406/176/7
f 279/61/8 419/64/8 418/63/8 278/62/8
f 280/58/8 414/59/8 419/64/8 279/61/8
f 347/48/111 352/48/131 285/48/136 330/48/109
f 403/171/7 411/170/7 413/181/7 405/180/7
f 401/175/7 410/174/7 412/169/7 402/168/7
f 278/62/8 418/63/8 409/66/8 408/65/8
f 437/182/144 284/183/89 303/184/89 392/185/92
f 283/186/145 436/187/146 391/188/115 301/189/117
f 391/188/115 436/187/146 437/182/144 392/185/92
f 408/65/8 409/66/8 417/68/147 282/67/148
f 282/67/148 417/68/147 440/96/149 277/95/149
f 265/190/7 273/191/7 399/173/7 404/172/7
f 281/57/150 415/60/151 414/59/8 280/58/8
f 439/160/152 397/161/153 415/60/151 281/57/150
s 2
f 305/192/154 93/193/155 54/194/156 306/195/157
f 66/196/4 65/197/4 68/198/4 67/199/4
f 61/200/158 69/201/158 45/202/158 62/203/158
f 64/204/7 63/205/7 71/206/7 70/207/7
f 44/208/159 304/209/160 319/210/161 365/211/162
f 306/48/157 54/48/156 316/48/163 307/48/164
f 43/212/165 41/213/165 97/214/166 54/215/156
f 54/48/156 97/48/166 316/48/163
f 304/216/160 42/217/167 367/218/168 319/219/161
f 56/220/169 57/221/170 312/222/170 311/223/169
f 272/224/171 281/225/172 270/226/173 259/227/174
f 278/228/175 267/229/175 268/230/176 279/231/176
f 279/231/176 268/230/176 269/232/177 280/233/177
f 269/232/177 270/226/173 281/225/172 280/233/177
f 368/234/4 264/235/4 276/236/4 369/237/4
f 262/48/178 263/48/179 275/48/179 274/48/180
f 398/238/181 400/239/182 294/240/183 293/241/184
f 265/242/164 283/243/5 301/244/5 300/245/164
f 42/48/167 320/48/185 341/48/5 367/48/168
f 323/48/11 327/48/11 328/48/11 325/48/11 321/48/11 322/48/11 326/48/11 324/48/11
f 364/246/186 293/247/184 365/211/162 319/210/161
f 442/248/187 398/249/181 293/247/184 364/246/186
f 95/250/188 46/251/189 366/252/190 338/253/191
f 295/48/192 296/48/193 336/48/194 338/48/191
f 338/254/191 366/255/190 294/256/183 295/257/192
f 336/48/194 296/48/193 337/48/5
f 360/258/195 339/259/196 358/260/197 373/261/198
f 340/262/5 339/263/196 360/264/195 363/265/5
f 340/266/5 363/267/5 301/268/5
f 300/245/164 301/244/5 363/269/5 360/270/195
f 260/48/199 441/48/200 296/48/193 295/48/192
f 46/271/189 44/272/159 365/273/162 366/274/190
f 293/241/184 294/240/183 366/274/190 365/273/162
f 302/48/89 299/48/201 367/48/168 341/48/5
f 300/275/164 360/276/195 362/277/202 359/260/203
f 299/278/201 364/279/186 319/280/161 367/281/168
f 263/282/179 368/234/4 369/237/4 275/283/179
f 360/284/195 373/285/198 361/286/204 362/287/202
f 265/288/164 300/275/164 359/260/203 273/289/205
f 376/290/206 271/291/207 282/292/208 277/293/209
f 96/294/210 94/295/211 374/296/212 375/297/213
f 96/298/210 375/260/213 383/299/214 379/300/215
f 361/301/204 373/302/198 382/303/216 381/304/217
f 373/302/198 358/260/197 380/299/218 382/303/216
f 96/298/210 379/300/215 378/305/218 98/306/5
f 381/307/217 390/308/219 387/309/220
f 273/289/205 359/260/203 386/299/221 384/310/221
f 362/302/202 361/311/204 387/304/220 388/303/222
f 359/260/203 362/302/202 388/303/222 386/299/221
f 72/312/5 47/313/196 339/263/196 340/262/5
f 358/260/197 98/314/5 378/315/218 380/299/218
f 55/316/223 56/220/169 311/223/169 310/317/224
f 339/259/196 47/318/196 98/314/5 358/260/197
f 316/48/163 97/48/166 336/48/194 337/48/5
f 374/319/212 94/320/211 60/321/225 315/322/226
f 97/48/166 95/48/188 338/48/191 336/48/194
f 414/196/4 415/199/4 416/198/4 413/197/4
f 409/200/227 410/203/227 399/202/227 417/201/227
f 412/204/2 418/207/2 419/206/2 411/205/2
f 357/48/228 351/48/228 353/48/228 354/48/228 285/48/228 352/48/228 355/48/228 356/48/228
f 259/227/174 261/323/229 407/324/230 272/224/171
f 441/48/200 274/48/5 337/48/5 296/48/193
f 396/325/231 442/326/187 364/327/186 299/328/201
f 261/48/229 262/48/178 274/48/180 407/48/230
f 400/251/182 260/329/199 295/253/192 294/330/183
f 408/331/232 266/332/232 267/229/175 278/228/175
f 266/332/232 408/331/232 282/292/208 271/291/207
f 443/48/233 396/48/231 299/48/201 302/48/89
f 277/293/209 440/333/205 377/334/203 376/290/206
f 377/260/203 440/335/205 385/336/221 389/299/221
f 273/337/205 384/338/221 385/336/221 440/335/205
f 310/317/224 315/322/226 60/321/225 55/316/223
f 57/221/170 58/339/234 313/340/235 312/222/170
f 93/193/155 305/192/154 314/341/236 59/342/237
f 313/340/235 58/339/234 59/342/237 314/341/236
f 361/343/204 381/344/217 387/345/220
s 4
f 49/168/2 50/171/2 63/170/2 64/169/2
f 51/172/2 48/175/2 62/174/2 45/173/2
f 52/180/2 53/176/238 68/177/239 65/181/2
f 50/171/2 52/180/2 65/181/2 63/170/2
f 48/175/2 49/168/2 64/169/2 62/174/2
f 47/190/2 51/172/2 45/173/2 98/191/2
f 303/346/240 302/347/241 341/348/242 342/349/243
f 274/48/4 337/48/4 316/48/4 343/48/4
f 343/48/4 316/48/4 307/48/4 344/48/4
f 53/176/238 95/179/244 41/178/245 68/177/239
f 320/350/246 73/351/246 342/349/243 341/348/242
f 433/49/247 432/52/248 435/51/249 434/50/250
f 421/53/251 423/56/252 422/55/253 420/54/254
f 411/205/255 419/206/255 414/196/255 413/197/255
f 410/203/256 409/200/256 418/207/256 412/204/256
f 395/213/257 416/198/257 415/199/257 397/212/257
f 434/1/250 260/1/258 400/1/259 433/1/247
f 423/69/252 401/72/260 402/71/261 422/70/253
f 421/73/251 396/74/262 401/72/260 423/69/252
f 433/79/247 400/82/259 405/81/263 432/80/248
f 432/80/248 405/81/263 406/78/264 435/75/249
f 420/1/254 442/1/265 396/1/262 421/1/251
f 422/70/253 402/71/261 442/165/265 420/164/254
f 277/48/266 440/48/266 273/48/266 265/48/266
f 284/352/267 443/353/267 302/347/241 303/346/240
f 435/75/249 406/78/264 260/77/258 434/76/250
s 8
f 84/354/268 83/355/269 82/356/270 85/357/271
f 63/205/272 65/197/272 66/196/272 71/206/272
f 62/203/273 64/204/273 70/207/273 61/200/273
f 41/213/274 43/212/274 67/199/274 68/198/274
f 72/358/275 90/359/276 92/360/277 51/361/278 47/362/275
f 82/363/270 83/364/269 46/365/279 52/366/280
f 83/1/269 84/1/268 44/1/281 46/1/279
f 85/367/271 82/363/270 52/366/280 50/368/282
f 84/369/268 85/367/271 50/368/282 44/370/281
f 92/360/277 91/371/283 73/372/284 48/373/285 51/361/278
f 90/359/276 91/371/283 92/360/277
f 96/374/286 98/375/286 45/202/286 69/201/286
f 73/376/284 320/377/287 42/378/287 48/379/285
f 430/354/288 431/357/289 428/356/290 429/355/291
f 407/48/292 274/48/293 441/48/294
f 428/363/290 405/366/295 400/365/296 429/364/291
f 429/1/291 400/1/296 398/1/297 430/1/288
f 431/367/289 403/368/298 405/366/295 428/363/290
f 430/369/288 398/370/297 403/368/298 431/367/289
f 397/212/299 407/215/292 441/214/294 395/213/299
f 436/359/300 438/360/301 437/371/302
f 283/358/303 265/362/303 404/361/304 438/360/301 436/359/300
f 438/360/301 404/361/304 401/373/305 284/372/306 437/371/302
f 440/374/307 417/201/307 399/202/307 273/375/307
f 284/376/306 401/379/305 396/378/308 443/377/308
s 16
f 79/380/309 78/381/310 80/382/311 81/383/312
f 81/384/312 80/385/311 50/386/313 49/387/314
f 80/385/311 78/388/310 44/389/315 50/386/313
f 94/48/316 47/48/316 98/48/316 96/48/316
f 78/1/310 79/1/309 304/1/317 44/1/315
f 79/390/309 81/384/312 49/387/314 304/391/317
f 425/380/318 427/383/319 426/382/320 424/381/321
f 427/384/319 402/387/322 403/386/323 426/385/320
f 426/385/320 403/386/323 398/389/324 424/388/321
f 424/1/321 398/1/324 442/1/325 425/1/318
f 425/390/318 442/391/325 402/387/322 427/384/319
usemtl ModularEnv_NONE
s 1
f 93/161/138 43/215/139 54/48/326
f 395/214/142 441/48/327 260/178/143
f 407/212/328 397/160/153 439/1/152
s 4
f 41/179/245 95/48/244 97/213/329
