# Blender v2.74 (sub 0) OBJ File: 'HarpLab.blend'
# www.blender.org
mtllib lab_corn_in.mtl
o Wall_4x4.001_Plane.006
v 0.203232 3.586105 1.000862
v 0.203232 3.671558 1.000862
v 0.233228 3.586105 0.915409
v 0.233228 3.671558 0.915409
v 0.328196 3.586105 1.000862
v 0.328196 3.671558 1.000862
v 0.298200 3.586105 0.915409
v 0.298200 3.671558 0.915409
v 0.232879 3.586105 1.063964
v 0.232879 3.671558 1.063964
v 0.298549 3.671558 1.063964
v 0.298549 3.586105 1.063964
v 0.232879 3.586105 1.097836
v 0.232879 3.671558 1.097836
v 0.298549 3.671558 1.097836
v 0.298549 3.586105 1.097836
v 0.174582 3.485780 0.910145
v 0.174582 3.773807 0.910145
v 0.174582 3.485780 0.712280
v 0.174582 3.773807 0.712280
v 0.342579 3.485780 0.910145
v 0.342579 3.773807 0.910145
v 0.342579 3.485780 0.712280
v 0.342579 3.773807 0.712280
v 0.174582 3.581789 0.910145
v 0.174582 3.677798 0.910145
v 0.174582 3.677798 0.632280
v 0.174582 3.581789 0.632280
v 0.342579 3.677798 0.632280
v 0.342579 3.581789 0.632280
v 0.342579 3.677798 0.910145
v 0.342579 3.581789 0.910145
v 0.174582 3.677798 0.998734
v 0.174582 3.773807 0.998734
v 0.342579 3.581789 0.998734
v 0.342579 3.485780 0.998734
v 0.342579 3.773807 0.998734
v 0.174582 3.485780 0.998734
v 0.174582 3.581789 0.998734
v 0.342579 3.677798 0.998734
v -1.618645 1.451850 0.260904
v -1.552903 1.478533 0.278632
v -1.600979 1.483330 0.244459
v -1.553825 1.453000 0.293029
v -1.623585 1.011732 0.255815
v -1.558765 1.012883 0.287941
v -1.558420 0.987010 0.272950
v -1.606626 0.980252 0.238643
v -1.873469 1.445675 -0.001570
v -1.855803 1.477154 -0.018014
v -1.878410 1.005557 -0.006658
v -1.861450 0.974077 -0.023830
v 0.229859 1.451850 -1.573017
v 0.245636 1.478533 -1.506779
v 0.212899 1.483330 -1.555845
v 0.260054 1.453000 -1.507275
v 0.224918 1.011732 -1.578105
v 0.255114 1.012883 -1.512363
v 0.240119 0.987010 -1.512462
v 0.207252 0.980252 -1.561661
v -0.024966 1.445675 -1.835490
v -0.041925 1.477154 -1.818318
v -0.029906 1.005557 -1.840579
v -0.047572 0.974077 -1.824134
v 0.193542 3.393064 0.929349
v -0.894383 0.000000 0.929349
v 0.193519 3.392991 1.046350
v -1.894383 0.836524 0.929349
v -1.894383 2.666667 0.929349
v -0.072549 0.458633 0.929349
v 0.105327 3.399859 1.100211
v -1.344383 3.400000 0.929349
v 0.104768 3.400000 0.929349
v 0.105327 3.599859 1.100211
v -2.893824 3.599859 1.100211
v -2.493824 3.996527 1.100211
v 1.106176 3.996527 1.100211
v 0.106179 -0.000141 1.101210
v 0.105617 0.000000 0.929349
v -0.697269 0.402593 1.100770
v -1.473528 1.134977 1.100770
v -1.473528 2.472616 1.100770
v -0.697828 0.402735 0.929349
v -1.474087 1.135118 0.929349
v -1.474087 2.472758 0.929349
v -0.126572 0.402735 0.929349
v -1.047144 3.042014 0.929349
v -1.046585 3.041873 1.100770
v -0.126013 3.041873 1.100770
v -0.126572 3.042014 0.929349
v -0.126013 0.402593 1.100770
v 0.104768 3.400000 1.046350
v 0.104768 3.600000 1.043303
v -2.894383 3.600000 0.981337
v 0.105617 0.000000 1.046350
v -0.697828 0.402735 1.046739
v -1.474087 1.135118 1.046739
v -1.474087 2.472758 1.046739
v -1.047144 3.042014 1.046739
v -0.126572 3.042014 1.046739
v -0.126572 0.402735 1.046739
v 0.104768 3.600000 0.919371
v -0.646649 0.459660 1.046739
v -0.646649 0.459660 0.929349
v -1.385677 2.464742 0.929349
v -1.385677 1.108540 0.929349
v -0.995965 2.974690 0.929349
v -0.995965 2.974690 1.046739
v -0.073708 2.974690 1.046739
v -0.073699 2.974690 0.929349
v -0.072556 0.458636 1.046739
v -1.385677 1.108540 1.046739
v -1.385677 2.464742 1.046739
v -0.008085 0.000000 0.869277
v -0.785439 0.000000 0.869277
v -0.630640 0.359957 0.869277
v -1.797946 0.855407 0.882427
v -0.909970 0.130360 0.882427
v -1.516201 1.047099 0.882427
v -0.778209 0.400332 0.882427
v -1.816639 2.577906 0.882427
v -1.816639 0.937132 0.882427
v -1.551831 2.455734 0.882427
v -1.551831 1.124616 0.882427
v -1.133763 3.041262 0.882427
v -1.340574 3.290340 0.882427
v -1.799906 2.677897 0.882427
v -1.507475 2.542980 0.882427
v -0.984634 3.088832 0.882427
v -1.204126 3.353183 0.882427
v -0.023889 3.353183 0.882427
v -0.194719 3.088832 0.882427
v 1.106416 3.996527 -2.500225
v 1.106416 3.599859 -2.900225
v 1.106416 3.599859 0.098926
v 0.937191 3.400000 0.096927
v 0.937191 3.400000 -1.352224
v -0.619097 3.495334 0.767275
v -0.619097 3.369702 0.767275
v 0.247708 3.428108 0.767275
v 0.157738 3.302475 0.767275
v -0.010839 3.428108 0.767275
v -0.010839 3.302475 0.767275
v 0.247708 3.822670 0.767275
v -0.010839 3.822670 0.767275
v -0.894383 0.000000 0.097770
v -1.894383 2.666667 0.097770
v -1.894383 0.836524 0.097770
v -1.344383 3.400000 0.097770
v 0.105190 3.400000 0.097349
v 0.105190 3.600000 0.097349
v -2.494384 3.996669 0.097770
v 1.106416 3.996527 0.099770
v 1.106416 3.399859 0.098926
v 0.937190 0.458633 -0.080389
v 0.937191 2.666667 -1.902224
v 0.937191 0.836523 -1.902224
v 1.054191 3.392990 0.185678
v 0.937191 0.000000 -0.902224
v 0.937191 3.393064 0.185701
v -0.619097 3.495334 0.243450
v -0.010839 3.428108 0.243450
v -0.010839 3.822670 0.243450
v -0.008594 3.311713 0.152011
v -0.618860 3.369702 0.152011
v 0.247953 3.429690 0.240760
v 0.157346 3.309906 0.152012
v 1.106416 0.000141 0.099770
v 0.937191 0.000000 0.097776
v 1.106416 0.402593 -0.703669
v 1.106416 1.134976 -1.479928
v 1.106416 2.472616 -1.479928
v 0.937191 0.402734 -0.705669
v 0.937191 1.135118 -1.481928
v 0.937191 2.472758 -1.481928
v 0.937191 0.402734 -0.134413
v 0.937191 3.042014 -1.054986
v 1.106416 3.041873 -1.052986
v 1.106416 3.041873 -0.132413
v 0.937191 3.042014 -0.134413
v 1.106416 0.402593 -0.132413
v 1.054191 3.400000 0.096927
v 0.937191 0.000142 0.284230
v 0.989178 3.600000 -2.902224
v 0.206176 3.996527 1.100211
v 1.054191 0.000000 0.097776
v 1.054579 0.402734 -0.705669
v 1.054579 1.135118 -1.481928
v 1.054579 2.472758 -1.481928
v 1.054579 3.042014 -1.054986
v 1.054579 3.042014 -0.134413
v 1.054579 0.402734 -0.134413
v 1.051144 3.600000 0.096927
v 0.927212 3.600000 0.096927
v 1.054191 0.000142 0.284230
v 1.054579 0.459660 -0.654490
v 0.937191 0.459660 -0.654490
v 0.937191 2.464742 -1.393518
v 0.937191 1.108539 -1.393518
v 0.937191 2.974690 -1.003807
v 1.054579 2.974690 -1.003807
v 1.054579 2.974690 -0.081549
v 0.937191 2.974690 -0.081540
v 1.054579 0.458636 -0.080398
v 1.054579 1.108539 -1.393518
v 1.054579 2.464742 -1.393518
v 0.877118 0.000000 -0.015926
v 0.877118 0.000000 -0.793280
v 0.877118 0.359957 -0.638481
v 0.890268 0.855407 -1.805788
v 0.890268 0.130360 -0.917811
v 0.890268 1.047099 -1.524043
v 0.890269 0.400332 -0.786050
v 0.890268 2.577906 -1.824480
v 0.890268 0.937132 -1.824480
v 0.890268 2.455734 -1.559673
v 0.890268 1.124616 -1.559673
v 0.890268 3.041262 -1.141604
v 0.890268 3.290340 -1.348415
v 0.890268 2.677897 -1.807747
v 0.890269 2.542980 -1.515316
v 0.890268 3.088832 -0.992475
v 0.890268 3.353183 -1.211967
v 0.890268 3.353183 -0.031730
v 0.890269 3.088832 -0.202560
v 0.105612 0.000000 -0.902224
v 0.105612 2.666667 -1.902224
v 0.105612 0.836523 -1.902224
v 0.105612 3.400000 -1.352224
v 0.105612 3.600000 -2.902224
v 0.105612 3.996669 -2.502224
v 0.105617 3.996669 0.097770
v 0.845535 3.495334 -0.626053
v 0.845535 3.369702 -0.626053
v 0.845535 3.428108 0.240752
v 0.845535 3.302475 0.150783
v 0.845535 3.428108 -0.017795
v 0.845535 3.302475 -0.017795
v 0.845535 3.822670 0.240752
v 0.845535 3.822670 -0.017795
v 0.284924 3.495334 -0.626053
v 0.284924 3.428108 -0.017795
v 0.284924 3.822670 -0.017795
v 0.157346 3.311713 -0.013928
v 0.157346 3.369702 -0.624194
v 0.247817 3.822670 0.240623
v -0.008085 0.000000 0.097770
v -0.785439 0.000000 0.097770
v -0.630639 0.359957 0.097770
v 0.105612 0.000000 -0.015926
v 0.105612 0.000000 -0.793280
v 0.105612 0.359957 -0.638481
v -0.618860 3.369702 -0.015225
v -0.008594 3.311713 -0.015225
v -0.008594 3.369702 -0.625491
v -0.618860 3.362931 -0.625491
v 0.105617 0.000000 0.099216
v 0.292633 0.000000 1.101210
v 1.106416 0.000283 0.286224
v 0.292071 0.000142 1.046350
v -2.894383 3.600000 0.097771
v -2.893961 3.600000 -2.901803
v -2.495456 3.996669 -2.501803
v -0.170101 0.318918 0.869277
v -0.286595 0.359957 0.869277
v -0.146544 0.389464 0.910713
v 0.877118 0.359957 -0.294436
v 0.877118 0.318918 -0.177942
v 0.923918 0.393283 -0.148636
v -0.286595 0.359957 0.097770
v -0.170100 0.318918 0.097770
v 0.105612 0.318918 -0.177942
v 0.105612 0.359957 -0.294436
v -1.622949 1.992978 0.256470
v -1.557207 2.019662 0.274199
v -1.605283 2.024458 0.240026
v -1.558129 1.994129 0.288595
v -1.627889 1.552860 0.251381
v -1.563069 1.554011 0.283507
v -1.562724 1.528138 0.268516
v -1.610930 1.521380 0.234209
v -1.877774 1.986803 -0.006004
v -1.860107 2.018283 -0.022447
v -1.882714 1.546685 -0.011092
v -1.865754 1.515205 -0.028264
v 0.225554 1.992978 -1.577450
v 0.241332 2.019662 -1.511213
v 0.208595 2.024458 -1.560278
v 0.255749 1.994129 -1.511709
v 0.220614 1.552860 -1.582539
v 0.250809 1.554011 -1.516797
v 0.235815 1.528138 -1.516896
v 0.202948 1.521380 -1.566095
v -0.029270 1.986803 -1.839923
v -0.046229 2.018283 -1.822752
v -0.034210 1.546685 -1.845012
v -0.051876 1.515205 -1.828568
v -1.615707 2.530608 0.263930
v -1.549965 2.557292 0.281658
v -1.598042 2.562088 0.247485
v -1.550887 2.531759 0.296055
v -1.620648 2.090490 0.258841
v -1.555827 2.091641 0.290967
v -1.555483 2.065768 0.275976
v -1.603688 2.059010 0.241669
v -1.870532 2.524433 0.001456
v -1.852866 2.555913 -0.014988
v -1.875472 2.084315 -0.003632
v -1.858513 2.052835 -0.020804
v 0.232796 2.530608 -1.569991
v 0.248573 2.557292 -1.503753
v 0.215837 2.562088 -1.552819
v 0.262991 2.531759 -1.504249
v 0.227855 2.090490 -1.575079
v 0.258051 2.091641 -1.509337
v 0.243056 2.065768 -1.509436
v 0.210190 2.059010 -1.558635
v -0.022029 2.524433 -1.832464
v -0.038988 2.555913 -1.815292
v -0.026969 2.084315 -1.837553
v -0.044635 2.052835 -1.821108
v 0.292071 0.000142 0.929349
v 0.292071 0.000142 0.285671
v 1.054748 0.000000 1.046909
v 0.937750 0.000000 0.929909
v 1.106416 0.000000 1.099770
v 1.009442 3.586105 0.197945
v 1.009442 3.671558 0.197945
v 0.923989 3.586105 0.227941
v 0.923989 3.671558 0.227941
v 1.009442 3.586105 0.322909
v 1.009442 3.671558 0.322909
v 0.923989 3.586105 0.292913
v 0.923989 3.671558 0.292913
v 1.072544 3.586105 0.227592
v 1.072544 3.671558 0.227592
v 1.072544 3.671558 0.293262
v 1.072544 3.586105 0.293262
v 1.106416 3.586105 0.227592
v 1.106416 3.671558 0.227592
v 1.106416 3.671558 0.293262
v 1.106416 3.586105 0.293262
v 0.917300 3.485780 0.181562
v 0.917300 3.773807 0.181562
v 0.719435 3.485780 0.181562
v 0.719435 3.773807 0.181562
v 0.917300 3.485780 0.349559
v 0.917300 3.773807 0.349559
v 0.719435 3.485780 0.349559
v 0.719435 3.773807 0.349559
v 0.917300 3.581789 0.181562
v 0.917300 3.677798 0.181562
v 0.639435 3.677798 0.181562
v 0.639435 3.581789 0.181562
v 0.639435 3.677798 0.349559
v 0.639435 3.581789 0.349559
v 0.917300 3.677798 0.349559
v 0.917300 3.581789 0.349559
v 1.005890 3.677798 0.181562
v 1.005890 3.773807 0.181562
v 1.005890 3.581789 0.349559
v 1.005890 3.485780 0.349559
v 1.005890 3.773807 0.349559
v 1.005890 3.485780 0.181562
v 1.005890 3.581789 0.181562
v 1.005890 3.677798 0.349559
vt 0.000000 0.000000
vt 0.154840 0.314183
vt 0.128990 0.314183
vt 0.128990 0.293865
vt 0.154841 0.293865
vt 0.109089 0.314183
vt 0.109089 0.293865
vt 0.099421 0.314183
vt 0.099421 0.293865
vt 0.637655 0.369766
vt 0.615020 0.369766
vt 0.615020 0.359980
vt 0.637655 0.359980
vt 0.682083 0.491732
vt 0.629699 0.491723
vt 0.629711 0.472747
vt 0.667014 0.472754
vt 0.637655 0.419439
vt 0.615020 0.419439
vt 0.615020 0.415047
vt 0.637655 0.415047
vt 0.637655 0.348185
vt 0.615020 0.348185
vt 0.615020 0.400868
vt 0.615020 0.389073
vt 0.637655 0.389073
vt 0.637655 0.400868
vt 0.615020 0.428961
vt 0.637655 0.428961
vt 0.637655 0.433354
vt 0.615020 0.433354
vt 0.666976 0.529680
vt 0.629674 0.529674
vt 0.629686 0.510698
vt 0.682070 0.510708
vt 0.615020 0.379287
vt 0.637655 0.379287
vt 0.637655 0.443140
vt 0.615020 0.443140
vt 0.615020 0.405261
vt 0.637655 0.405261
vt 0.612973 0.529670
vt 0.612985 0.510695
vt 0.615020 0.343792
vt 0.637655 0.343792
vt 0.612998 0.491720
vt 0.613010 0.472744
vt 0.203822 0.288728
vt 0.204078 0.092618
vt 0.231052 0.093660
vt 0.230958 0.287888
vt 0.234486 0.089018
vt 0.234486 0.300053
vt 0.204262 0.299720
vt 0.204262 0.088685
vt 0.203702 0.263296
vt 0.235039 0.263296
vt 0.235039 0.313814
vt 0.203702 0.313814
vt 0.200859 0.090512
vt 0.202507 0.093672
vt 0.202333 0.287567
vt 0.200501 0.290661
vt 0.235039 0.113343
vt 0.235039 0.259701
vt 0.203702 0.259701
vt 0.203702 0.113343
vt 0.232610 0.094803
vt 0.232426 0.286676
vt 0.234224 0.091518
vt 0.234224 0.289935
vt 0.231887 0.295056
vt 0.202810 0.295516
vt 0.203702 0.109748
vt 0.203702 0.059230
vt 0.235039 0.059230
vt 0.235039 0.109748
vt 0.231950 0.086586
vt 0.203110 0.085893
vt 0.010454 0.262688
vt 0.178395 0.262688
vt 0.178395 0.355599
vt 0.010454 0.355599
vt 0.620878 0.522521
vt 0.613645 0.522505
vt 0.613645 0.476958
vt 0.620878 0.476975
vt 0.808491 0.543705
vt 0.950563 0.543705
vt 0.950563 0.625782
vt 0.808491 0.625782
vt 0.696940 0.442680
vt 0.620379 0.366564
vt 0.753023 0.233067
vt 0.829584 0.309261
vt 0.620878 0.085344
vt 0.620878 0.185697
vt 0.613645 0.185680
vt 0.613645 0.085327
vt 0.620878 0.347642
vt 0.613645 0.347625
vt 0.620878 0.421248
vt 0.613645 0.421231
vt 0.613645 0.050749
vt 0.620878 0.050766
vt 0.613645 0.000009
vt 0.620878 0.000026
vt 0.010454 0.097560
vt 0.010454 0.000936
vt 0.178395 0.000936
vt 0.178395 0.097560
vt 0.613645 0.728269
vt 0.620878 0.728307
vt 0.613645 0.782048
vt 0.613645 0.546718
vt 0.620878 0.546736
vt 0.292618 0.760049
vt 0.316154 0.760049
vt 0.316149 0.859545
vt 0.292613 0.859543
vt 0.292644 0.188531
vt 0.292647 0.126597
vt 0.316183 0.126596
vt 0.316180 0.188531
vt 0.316173 0.349644
vt 0.316159 0.642262
vt 0.292623 0.642262
vt 0.292637 0.349644
vt 0.811952 0.332081
vt 0.852544 0.332081
vt 0.852544 0.470629
vt 0.811952 0.470629
vt 0.017103 0.592181
vt 0.033342 0.586539
vt 0.033940 0.671204
vt 0.016480 0.671204
vt 0.060348 0.603226
vt 0.061577 0.671204
vt 0.552896 0.677460
vt 0.552917 0.744635
vt 0.608310 0.744635
vt 0.608444 0.677430
vt 0.808491 0.472969
vt 0.808491 0.388407
vt 0.950563 0.388407
vt 0.950563 0.472969
vt 0.788037 0.349816
vt 0.609995 0.349816
vt 0.609995 0.297350
vt 0.788037 0.297350
vt 0.230850 0.664748
vt 0.220498 0.640158
vt 0.220534 0.465619
vt 0.230895 0.449606
vt 0.985611 1.053481
vt 0.965587 1.053481
vt 0.965587 0.976514
vt 0.985611 0.976514
vt 0.623612 -0.016169
vt 0.623612 0.071048
vt 0.611722 0.071048
vt 0.611722 -0.016169
vt 0.100900 0.669822
vt 0.177440 0.726396
vt 0.113848 0.796577
vt 0.043667 0.732985
vt 0.985611 0.884425
vt 0.965587 0.884425
vt 0.965587 0.667417
vt 0.985611 0.667417
vt 0.965587 0.545181
vt 0.985611 0.545181
vt 0.985611 1.100845
vt 0.965587 1.100845
vt 0.965587 0.503335
vt 0.985611 0.503335
vt 0.852544 0.689250
vt 0.811952 0.689250
vt 0.811952 0.550702
vt 0.852544 0.550702
vt 0.947001 0.689250
vt 0.869357 0.689250
vt 0.869357 0.550702
vt 0.947001 0.550702
vt 0.203023 0.469066
vt 0.228649 0.469066
vt 0.228649 0.647908
vt 0.203023 0.647908
vt 0.228649 0.686942
vt 0.203023 0.686942
vt 0.203023 0.430032
vt 0.228649 0.430032
vt 0.695720 0.023784
vt 0.829139 0.156428
vt 0.619603 0.100345
vt 0.553613 0.677347
vt 0.608362 0.744474
vt 0.553739 0.744415
vt 0.869357 0.470629
vt 0.947001 0.470629
vt 0.551303 0.579820
vt 0.551530 0.519876
vt 0.607877 0.519860
vt 0.607877 0.579820
vt 0.551288 0.451841
vt 0.607862 0.451809
vt 0.608236 0.761769
vt 0.553613 0.761710
vt 0.047353 0.601809
vt 0.062985 0.585946
vt 0.078972 0.601694
vt 0.063222 0.617435
vt 0.552917 0.761989
vt 0.608310 0.761989
vt 0.560588 0.589986
vt 0.602041 0.631440
vt 0.560597 0.672884
vt 0.519123 0.631451
vt 0.609995 0.170198
vt 0.788038 0.170198
vt 0.551067 0.298916
vt 0.562434 0.298772
vt 0.562434 0.375899
vt 0.551067 0.381904
vt 0.562657 0.377829
vt 0.551146 0.377848
vt 0.551146 0.294717
vt 0.562523 0.300702
vt 0.562787 0.398372
vt 0.562664 0.411735
vt 0.550897 0.405019
vt 0.631835 0.641321
vt 0.611357 0.641321
vt 0.611357 0.569821
vt 0.631835 0.569821
vt 0.042192 0.739106
vt 0.042192 0.901652
vt 0.104710 0.901652
vt 0.104710 0.739106
vt -0.120354 0.739106
vt -0.120422 0.901626
vt 0.869357 0.332081
vt 0.947001 0.332081
vt 0.613645 0.945476
vt 0.611722 -0.047857
vt 0.623612 -0.047857
vt 0.228904 0.302793
vt 0.137700 0.339442
vt 0.141333 0.356506
vt 0.212441 0.302793
vt 0.137700 0.266016
vt 0.141035 0.249018
vt 0.211889 0.302769
vt 0.070198 0.302875
vt 0.128508 0.366274
vt 0.044495 0.302916
vt 0.122433 0.370807
vt 0.033040 0.303055
vt 0.122215 0.235137
vt 0.128156 0.239291
vt 0.202595 0.615145
vt 0.202595 0.495629
vt 0.231203 0.512928
vt 0.231203 0.592918
vt 0.200824 0.664743
vt 0.200824 0.470185
vt 0.227742 0.619929
vt 0.966624 1.052775
vt 0.966624 0.975881
vt 0.984493 0.975881
vt 0.984493 1.052775
vt 0.966624 0.883880
vt 0.966624 0.667079
vt 0.984493 0.667079
vt 0.984493 0.883880
vt 0.966624 0.544960
vt 0.984493 0.544960
vt 0.966624 1.100093
vt 0.984493 1.100093
vt 0.966624 0.503154
vt 0.984493 0.503154
vt 0.231727 0.614240
vt 0.231727 0.498456
vt 0.203546 0.498456
vt 0.203546 0.614240
vt 0.231727 0.659103
vt 0.203546 0.659103
vt 0.231727 0.453593
vt 0.203546 0.453593
vt 0.229409 0.429972
vt 0.229409 0.499871
vt 0.203508 0.499871
vt 0.203508 0.429972
vt 0.229409 0.613459
vt 0.203508 0.613459
vt 0.229409 0.683358
vt 0.203508 0.683358
vt 0.611722 0.979041
vt 0.611722 0.911881
vt 0.623612 0.911881
vt 0.623612 0.979041
vt 0.201381 0.491474
vt 0.232921 0.513423
vt 0.232921 0.592411
vt 0.201381 0.609494
vt 0.611722 0.355341
vt 0.623612 0.355341
vt 0.623612 0.607574
vt 0.611722 0.607574
vt 0.611722 0.168325
vt 0.623612 0.168325
vt 0.315966 0.020139
vt 0.316123 0.126599
vt 0.292507 0.020144
vt 0.623612 0.732960
vt 0.611722 0.732960
vt 0.230138 0.663668
vt 0.204237 0.617788
vt 0.204237 0.448534
vt 0.233710 0.470512
vt 0.316586 0.760051
vt 0.316659 0.859545
vt 0.293122 0.859551
vt 0.293050 0.760056
vt 0.292750 0.349653
vt 0.316286 0.349648
vt 0.316500 0.642265
vt 0.292964 0.642270
vt 0.203616 0.487667
vt 0.231128 0.487667
vt 0.231128 0.628663
vt 0.203616 0.628663
vt 0.203616 0.433034
vt 0.231128 0.433034
vt 0.231128 0.683296
vt 0.203616 0.683296
vt 0.208179 0.427786
vt 0.223456 0.427786
vt 0.223456 0.499485
vt 0.208179 0.499485
vt 0.096221 0.072763
vt 0.000072 0.000072
vt 0.999928 0.000072
vt 0.895367 0.071465
vt 0.223456 0.615998
vt 0.208179 0.615998
vt 0.223456 0.687697
vt 0.208179 0.687697
vt 0.788038 0.117732
vt 0.609995 0.117732
vt 0.623612 1.013033
vt 0.611722 1.013033
vt 0.966624 0.437589
vt 0.984493 0.437589
vt 0.966625 -0.186210
vt 0.966625 -0.233528
vt 0.984494 -0.233528
vt 0.984494 -0.186210
vt 0.966624 0.199485
vt 0.966624 -0.017315
vt 0.984494 -0.017315
vt 0.984494 0.199485
vt 0.966624 0.363411
vt 0.966624 0.321604
vt 0.984494 0.321604
vt 0.984494 0.363411
vt 0.966625 -0.109316
vt 0.984494 -0.109316
vt 0.985611 0.199382
vt 0.965587 0.199382
vt 0.965587 -0.017626
vt 0.985611 -0.017626
vt 0.985611 -0.186682
vt 0.965587 -0.186682
vt 0.965587 -0.234046
vt 0.985611 -0.234046
vt 0.985611 0.363464
vt 0.965587 0.363464
vt 0.965587 0.321618
vt 0.985611 0.321618
vt 0.985611 -0.109715
vt 0.965587 -0.109715
vt 0.985611 0.429092
vt 0.965587 0.429092
vt 0.965587 0.437707
vt 0.985611 0.437707
vt 0.966624 0.428976
vt 0.984493 0.428976
vt 0.201270 0.641540
vt 0.201270 0.448534
vt 0.233710 0.506638
vt 0.233710 0.663667
vt 0.316136 0.954307
vt 0.292677 0.954290
vt 0.057143 0.008485
vt 0.057143 0.096204
vt 0.047314 0.117761
vt 0.039871 0.102909
vt 0.039871 0.007919
vt 0.057143 0.250296
vt 0.057143 0.343861
vt 0.039871 0.342946
vt 0.039871 0.253653
vt 0.229529 0.618940
vt 0.229529 0.682741
vt 0.204828 0.682741
vt 0.204828 0.618940
vt 0.229529 0.494893
vt 0.204828 0.494893
vt 0.229529 0.431093
vt 0.204828 0.431093
vt 0.316659 0.954290
vt 0.316091 0.999970
vt 0.291243 0.999977
vt 0.293200 0.954311
vt 0.233710 0.641540
vt 0.201270 0.663667
vt 0.201270 0.506638
vt 0.233710 0.448534
vt 0.057527 0.075365
vt 0.037502 0.001363
vt 0.205117 0.620625
vt 0.229591 0.620625
vt 0.229591 0.683835
vt 0.205117 0.683835
vt 0.053306 0.879064
vt 0.000057 0.999943
vt 0.011015 0.114248
vt 0.064056 0.152618
vt 0.205117 0.497724
vt 0.229591 0.497724
vt 0.205117 0.434513
vt 0.229591 0.434513
vt 0.057527 0.348177
vt 0.037502 0.367217
vt 0.037502 0.233396
vt 0.042509 0.232656
vt 0.057527 0.248821
vt 0.057143 0.137256
vt 0.057527 0.237029
vt 0.292731 0.020138
vt 0.316189 0.020139
vt 0.223314 0.663672
vt 0.223359 0.448529
vt 0.233712 0.464555
vt 0.233677 0.639094
vt 0.229866 0.469612
vt 0.229866 0.643785
vt 0.203087 0.643785
vt 0.203087 0.469612
vt 0.229866 0.681800
vt 0.203087 0.681800
vt 0.229866 0.431598
vt 0.203087 0.431598
vt 0.318124 0.999972
vt 0.293276 0.999970
vn -0.943600 0.000000 -0.331200
vn 0.000000 0.000000 -1.000000
vn 0.943600 0.000000 -0.331200
vn 0.000000 -1.000000 0.000000
vn 0.000000 1.000000 0.000000
vn 0.905100 0.000000 0.425200
vn 1.000000 0.000000 0.000000
vn -1.000000 0.000000 0.000000
vn -0.905100 0.000000 0.425200
vn 0.000000 -0.640100 -0.768300
vn 0.000000 0.000000 1.000000
vn 0.000000 0.640100 -0.768300
vn -0.331200 0.000000 -0.943600
vn -0.331200 0.000000 0.943600
vn 0.425200 0.000000 0.905100
vn 0.425200 0.000000 -0.905100
vn -0.768300 -0.640100 0.000000
vn -0.768300 0.640100 0.000000
vn 0.068800 0.252300 -0.965200
vn 0.071000 -0.243000 -0.967400
vn -0.187700 -0.703100 -0.685800
vn -0.683400 -0.703000 -0.196600
vn -0.969200 -0.240600 0.051600
vn -0.967000 0.249800 0.049400
vn -0.681700 0.704300 -0.197700
vn -0.188700 0.704600 -0.684100
vn 0.141400 -0.265500 0.953700
vn 0.951200 -0.263800 0.160200
vn 0.955100 0.250100 0.158700
vn 0.139900 0.251800 0.957600
vn 0.412300 -0.877400 -0.245300
vn -0.256700 -0.877700 0.404700
vn -0.575600 0.293500 0.763200
vn -0.568700 -0.296000 0.767400
vn 0.625500 -0.766200 0.146800
vn 0.136700 -0.766600 0.627400
vn -0.277400 0.878700 0.388300
vn 0.396300 0.878600 -0.266300
vn 0.623200 0.769000 0.142300
vn 0.132400 0.769300 0.625000
vn 0.779900 0.293500 -0.552800
vn 0.783900 -0.296000 -0.545800
vn 0.893100 -0.283200 0.349500
vn 0.493900 -0.833800 0.246800
vn 0.800000 -0.600000 0.000000
vn 0.948700 -0.316200 0.000000
vn 0.959500 -0.281600 -0.010500
vn 0.959100 -0.283000 -0.010500
vn 0.480000 -0.877200 -0.007300
vn 0.476200 -0.879300 -0.007200
vn 0.392200 0.895600 0.209700
vn 0.862800 0.377300 0.336600
vn 0.906000 0.423300 0.000000
vn 0.641600 0.767000 0.000000
vn 0.371500 0.928400 -0.001400
vn 0.918800 0.394600 -0.008500
vn 0.917500 0.397600 -0.008500
vn 0.366900 0.930300 -0.001400
vn 0.948700 -0.316100 -0.010600
vn 0.948600 -0.316400 -0.010600
vn 0.449300 -0.893400 -0.007000
vn 0.445100 -0.895400 -0.006900
vn 0.503200 0.864100 -0.002900
vn 0.497600 0.867400 -0.002900
vn 0.497000 0.867800 -0.002900
vn 0.502600 0.864500 -0.002900
vn 0.470600 -0.381200 0.795800
vn 0.000000 -0.600000 0.800000
vn 0.246800 -0.833800 0.493900
vn 0.924000 0.382300 -0.003300
vn 0.931100 0.364900 -0.001600
vn 0.380300 -0.924800 -0.000600
vn 0.709900 0.704300 -0.006000
vn 0.696200 0.717800 -0.005900
vn 0.001800 1.000000 -0.000000
vn -0.550000 0.835200 -0.000000
vn 0.168500 0.985700 0.000000
vn 0.126600 0.991000 0.042600
vn -0.585600 0.763500 -0.272300
vn -0.667100 0.744900 0.000000
vn 0.109900 0.993900 0.000000
vn -0.051900 -0.998600 -0.006700
vn 0.133000 -0.982400 0.131300
vn 0.448200 -0.893900 -0.010300
vn -0.054000 -0.998500 -0.010600
vn 0.621400 -0.473600 0.624000
vn 0.950200 -0.311700 -0.002300
vn -0.102200 -0.994700 -0.007700
vn -0.098400 -0.995100 -0.003800
vn 0.209700 0.895600 0.392200
vn 0.000000 0.767000 0.641600
vn 0.454000 0.508900 0.731400
vn -0.938100 -0.346200 -0.004200
vn -0.897000 -0.284200 0.338400
vn -0.922100 0.263400 0.283300
vn -0.946500 0.310800 -0.086200
vn 1.000000 0.000300 0.000200
vn 1.000000 0.000400 0.000200
vn -0.020400 0.871000 0.490900
vn -0.033200 0.499300 0.865800
vn -0.021000 0.860900 0.508300
vn -0.000000 -1.000000 -0.000100
vn -0.000100 -1.000000 -0.000000
vn -0.000100 -1.000000 -0.000100
vn 1.000000 0.007200 0.000800
vn 1.000000 0.008000 0.000800
vn 0.000000 0.985700 0.168500
vn 0.000000 0.835200 -0.550000
vn -0.272300 0.763500 -0.585600
vn 0.042600 0.991000 0.126600
vn 0.000000 0.452900 0.891600
vn 0.000000 0.752000 0.659200
vn 0.257800 0.775200 0.576600
vn 0.266500 0.783000 0.562100
vn -0.928500 0.303800 -0.213600
vn -0.936900 -0.301800 -0.176400
vn -0.827100 -0.200000 0.525200
vn -0.852400 0.248900 0.459900
vn 0.000000 0.744900 -0.667100
vn 0.000000 0.993900 0.109900
vn -0.007100 -0.994700 -0.102200
vn -0.009600 -0.998500 -0.054000
vn -0.006000 -0.998600 -0.051800
vn -0.003200 -0.995100 -0.098400
vn -0.918700 0.395100 -0.000000
vn 0.000000 0.395100 -0.918700
vn 0.576600 0.775200 0.257800
vn 0.562100 0.783000 0.266500
vn -0.194700 0.961400 -0.194700
vn 0.707000 0.000200 0.707300
vn 1.000000 0.000200 0.000300
vn -0.001800 -0.309500 0.950900
vn -0.000100 0.000200 1.000000
vn -0.008700 -0.893100 0.449800
vn -0.035300 -0.998700 -0.035600
vn -0.020600 -0.997500 -0.068200
vn -0.068300 -0.997400 -0.020900
vn -0.041900 -0.998200 -0.041900
vn -0.000100 1.000000 -0.000100
vn -0.000400 1.000000 0.000000
vn -0.000000 1.000000 -0.000400
vn -0.000300 1.000000 0.001900
vn -0.000200 1.000000 0.001300
vn -0.000400 0.380400 0.924800
vn 0.688800 0.222700 0.689900
vn 0.924600 0.380900 -0.000000
vn 0.380900 -0.924600 -0.000100
vn -0.001100 0.224600 0.974400
vn -0.000500 -0.935600 0.353100
vn -0.000200 -0.924700 0.380700
vn 0.999900 0.015200 0.001200
vn 0.299100 -0.906300 0.298300
vn 0.659200 0.752000 0.000000
vn 0.891600 0.452900 0.000000
vn 0.139900 0.251700 0.957600
vn 0.132400 0.769200 0.625000
vn -0.001400 1.000000 -0.000100
vn -0.002100 1.000000 -0.000200
vn -0.000100 1.000000 -0.000000
vn -0.000200 1.000000 -0.000200
vn -0.000000 1.000000 -0.000100
vn 0.000100 1.000000 0.000100
vn -0.000500 1.000000 0.000600
vn -0.000700 1.000000 0.000800
vn -0.193500 0.210200 -0.958300
vn 0.192000 0.236200 -0.952500
vn 0.117000 -0.372300 -0.920700
vn -0.106800 -0.378900 -0.919200
vn 0.089100 -0.261100 -0.961100
vn -0.331600 0.132600 -0.934000
vn -0.068800 0.397100 -0.915200
vn 0.313600 0.071500 -0.946800
vn 0.000200 0.000300 1.000000
vn 0.000200 0.000400 1.000000
vn 0.000800 0.007200 1.000000
vn 0.000800 0.008000 1.000000
vn 0.000100 -0.000300 1.000000
vn 0.000100 -0.000500 1.000000
vn 0.052300 -0.347300 -0.936300
vn -0.404600 -0.002400 -0.914500
vn 0.103000 0.502400 -0.858500
vn 0.458900 0.041000 -0.887500
vn -0.273600 -0.473700 -0.837100
vn -0.279100 0.119000 -0.952900
vn 0.292900 0.142800 -0.945400
vn 0.289500 -0.433700 -0.853300
vn -0.037000 -0.282900 0.958400
vn -0.020400 -0.882800 0.469400
vn -0.021100 -0.873400 0.486600
vn -0.037000 -0.281500 0.958900
vn -0.958300 0.210200 -0.193500
vn -0.919200 -0.378900 -0.106800
vn -0.920700 -0.372300 0.117000
vn -0.952500 0.236200 0.192000
vn -0.034400 0.391800 0.919400
vn -0.034200 0.400000 0.915900
vn -0.037400 -0.317900 0.947400
vn -0.037400 -0.314200 0.948600
vn -0.012000 0.926100 0.377200
vn -0.011400 0.932500 0.361100
vn 0.000000 0.622400 0.782700
vn -0.019400 -0.898500 0.438600
vn -0.020000 -0.890000 0.455500
vn -0.961100 -0.261100 0.089100
vn -0.946800 0.071500 0.313600
vn -0.915200 0.397100 -0.068800
vn -0.934000 0.132700 -0.331600
vn 0.002700 1.000000 0.000000
vn -0.914500 -0.002400 -0.404600
vn -0.936300 -0.347300 0.052300
vn -0.887500 0.041000 0.458900
vn -0.858500 0.502400 0.103000
vn -0.952900 0.119000 -0.279100
vn -0.837100 -0.473700 -0.273600
vn -0.706300 0.707900 0.000000
vn -0.853300 -0.433700 0.289500
vn -0.869600 -0.268000 0.414700
vn -0.014700 0.384900 0.922800
vn -0.012900 -0.710000 0.704100
vn -0.013400 0.513700 0.857900
vn -0.025500 0.698200 0.715500
vn -0.024500 0.723400 0.690000
vn 0.000500 0.000000 1.000000
vn 0.707100 0.000000 0.707100
vn 1.000000 0.000000 0.000500
vn 0.001200 0.015200 0.999900
vn 0.000200 -0.000800 1.000000
vn -0.001700 -0.022100 -0.999800
vn -0.002000 -0.025000 -0.999700
vn -0.999700 -0.025000 -0.002000
vn -0.999800 -0.022100 -0.001700
vn 1.000000 -0.000800 0.000200
vn -0.998800 -0.049800 -0.003900
vn -0.003900 -0.049800 -0.998800
vn -0.321100 -0.143400 -0.936100
vn -0.002900 0.303800 -0.952700
vn 0.337400 0.012300 -0.941300
vn 0.042600 -0.380600 -0.923700
vn 0.794500 -0.607200 0.000000
vn 0.659800 0.751500 0.000000
vn 0.842700 -0.538300 -0.000100
vn 0.491600 0.268200 -0.828500
vn 0.362600 0.353000 -0.862500
vn 0.246900 0.570300 -0.783400
vn 0.339300 0.500500 -0.796400
vn -0.235200 0.620600 -0.748100
vn -0.508400 0.234200 -0.828700
vn -0.353300 0.480900 -0.802500
vn -0.010800 0.393000 -0.919500
vn 0.476200 0.010000 -0.879300
vn -0.433900 -0.093600 -0.896100
vn 0.150300 -0.498900 -0.853500
vn 0.000200 0.394100 0.919000
vn 0.000100 0.830900 0.556400
vn 0.000100 0.837700 0.546200
vn -0.936100 -0.143400 -0.321100
vn -0.923700 -0.380600 0.042600
vn -0.941300 0.012200 0.337400
vn -0.952700 0.303800 -0.002900
vn -0.000000 1.000000 0.001800
vn 0.000000 -0.607200 0.794500
vn 0.000000 -1.000000 0.000800
vn -0.748100 0.620600 -0.235200
vn -0.802500 0.480900 -0.353300
vn -0.828700 0.234200 -0.508400
vn -0.879300 0.010000 0.476200
vn -0.919500 0.393000 -0.010800
vn -0.896100 -0.093600 -0.433900
vn -0.853500 -0.498900 0.150300
vn -0.828700 0.268200 0.491300
vn -0.796600 0.500500 0.339100
vn -0.780400 0.573100 0.249900
vn -0.858900 0.363200 0.361000
vn 0.029400 0.764500 -0.643900
vn -0.643600 0.764700 0.031800
vn 0.782700 0.622400 0.000000
vn -0.004200 -0.346200 -0.938100
vn -0.086200 0.310800 -0.946500
vn 0.283300 0.263400 -0.922100
vn 0.338400 -0.284200 -0.897000
vn -0.176400 -0.301800 -0.936900
vn -0.213600 0.303700 -0.928500
vn 0.459900 0.248900 -0.852400
vn 0.525200 -0.200000 -0.827100
vn 0.000000 0.751500 0.659800
vn -0.000100 -0.538300 0.842700
vn 0.919000 0.394100 0.000200
vn 0.546200 0.837700 0.000100
vn 0.556400 0.830900 0.000100
vn 0.000800 -1.000000 0.000000
usemtl ModularEnv
s off
f 2/1/1 4/1/1 3/1/1 1/1/1
f 4/1/2 8/1/2 7/1/2 3/1/2
f 8/2/3 6/3/3 5/4/3 7/5/3
f 1/1/4 3/1/4 7/1/4 5/1/4
f 6/1/5 8/1/5 4/1/5 2/1/5
f 5/1/4 12/1/4 9/1/4 1/1/4
f 2/1/5 10/1/5 11/1/5 6/1/5
f 6/3/6 11/6/6 12/7/6 5/4/6
f 9/1/4 12/1/4 16/1/4 13/1/4
f 11/1/5 10/1/5 14/1/5 15/1/5
f 12/7/7 11/6/7 15/8/7 16/9/7
f 10/1/8 9/1/8 13/1/8 14/1/8
f 1/1/9 9/1/9 10/1/9 2/1/9
f 25/1/8 28/1/8 19/1/8 17/1/8
f 28/10/10 30/11/10 23/12/10 19/13/10
f 30/14/7 32/15/7 21/16/7 23/17/7
f 26/18/4 31/19/4 40/20/4 33/21/4
f 17/22/4 19/13/4 23/12/4 21/23/4
f 22/24/5 24/25/5 20/26/5 18/27/5
f 32/28/5 25/29/5 39/30/5 35/31/5
f 31/19/11 26/18/11 25/29/11 32/28/11
f 24/32/7 22/33/7 31/34/7 29/35/7
f 29/35/7 31/34/7 32/15/7 30/14/7
f 20/26/12 24/25/12 29/36/12 27/37/12
f 27/37/2 29/36/2 30/11/2 28/10/2
f 18/1/8 20/1/8 27/1/8 26/1/8
f 26/1/8 27/1/8 28/1/8 25/1/8
f 35/31/11 39/30/11 38/38/11 36/39/11
f 37/40/11 34/41/11 33/21/11 40/20/11
f 31/34/7 22/33/7 37/42/7 40/43/7
f 25/1/8 17/1/8 38/1/8 39/1/8
f 17/22/4 21/23/4 36/44/4 38/45/4
f 22/24/5 18/27/5 34/41/5 37/40/5
f 21/16/7 32/15/7 35/46/7 36/47/7
f 18/1/8 26/1/8 33/1/8 34/1/8
f 328/1/13 327/1/13 329/1/13 330/1/13
f 330/1/8 329/1/8 333/1/8 334/1/8
f 334/2/14 333/5/14 331/4/14 332/3/14
f 327/1/4 331/1/4 333/1/4 329/1/4
f 332/1/5 328/1/5 330/1/5 334/1/5
f 331/1/4 327/1/4 335/1/4 338/1/4
f 328/1/5 332/1/5 337/1/5 336/1/5
f 332/3/15 331/4/15 338/7/15 337/6/15
f 335/1/4 339/1/4 342/1/4 338/1/4
f 337/1/5 341/1/5 340/1/5 336/1/5
f 338/7/11 342/9/11 341/8/11 337/6/11
f 336/1/2 340/1/2 339/1/2 335/1/2
f 327/1/16 328/1/16 336/1/16 335/1/16
f 351/1/2 343/1/2 345/1/2 354/1/2
f 354/10/17 345/13/17 349/12/17 356/11/17
f 356/14/11 349/17/11 347/16/11 358/15/11
f 352/18/4 359/21/4 366/20/4 357/19/4
f 343/22/4 347/23/4 349/12/4 345/13/4
f 348/24/5 344/27/5 346/26/5 350/25/5
f 358/28/5 361/31/5 365/30/5 351/29/5
f 357/19/7 358/28/7 351/29/7 352/18/7
f 350/32/11 355/35/11 357/34/11 348/33/11
f 355/35/11 356/14/11 358/15/11 357/34/11
f 346/26/18 353/37/18 355/36/18 350/25/18
f 353/37/8 354/10/8 356/11/8 355/36/8
f 344/1/2 352/1/2 353/1/2 346/1/2
f 352/1/2 351/1/2 354/1/2 353/1/2
f 361/31/7 362/39/7 364/38/7 365/30/7
f 363/40/7 366/20/7 359/21/7 360/41/7
f 357/34/11 366/43/11 363/42/11 348/33/11
f 351/1/2 365/1/2 364/1/2 343/1/2
f 343/22/4 364/45/4 362/44/4 347/23/4
f 348/24/5 363/40/5 360/41/5 344/27/5
f 347/16/11 362/47/11 361/46/11 358/15/11
f 344/1/2 360/1/2 359/1/2 352/1/2
s 1
f 61/1/19 63/1/20 64/1/21 52/1/22 51/1/23 49/1/24 50/1/25 62/1/26
f 46/48/27 58/49/28 56/50/29 44/51/30
f 60/52/31 48/53/32 52/54/22 64/55/21
f 41/56/33 49/57/24 51/58/23 45/59/34
f 60/60/31 59/61/35 47/62/36 48/63/32
f 62/64/26 50/65/25 43/66/37 55/67/38
f 44/51/30 56/50/29 54/68/39 42/69/40
f 42/69/40 54/68/39 55/70/38 43/71/37
f 41/72/33 44/51/30 42/69/40 43/71/37
f 59/61/35 58/49/28 46/48/27 47/62/36
f 45/73/34 48/63/32 47/62/36 46/48/27
f 52/1/22 48/1/32 45/1/34 51/1/23
f 43/66/37 50/65/25 49/57/24 41/56/33
f 41/72/33 45/73/34 46/48/27 44/51/30
f 53/74/41 57/75/42 63/76/20 61/77/19
f 53/78/41 55/70/38 54/68/39 56/50/29
f 57/79/42 58/49/28 59/61/35 60/60/31
f 64/1/21 63/1/20 57/1/42 60/1/31
f 55/67/38 53/74/41 61/77/19 62/64/26
f 53/78/41 56/50/29 58/49/28 57/79/42
f 147/80/43 149/81/44 72/82/45 69/83/46
f 92/84/47 71/85/48 89/86/49 100/87/50
f 146/88/51 148/89/52 68/90/53 66/91/54
f 72/92/4 149/93/44 150/94/4 73/95/4
f 96/96/55 97/97/56 81/98/57 80/99/58
f 97/97/56 98/100/59 82/101/60 81/98/57
f 98/100/59 99/102/61 88/103/62 82/101/60
f 80/99/58 91/104/63 101/105/64 96/96/55
f 88/103/62 99/102/61 100/87/50 89/86/49
f 78/106/65 95/107/66 101/105/64 91/104/63
f 227/108/67 156/109/68 137/110/68 229/111/69
f 75/112/70 94/113/71 76/114/72
f 74/115/73 93/116/74 94/113/71 75/112/70
f 71/85/48 92/84/47 93/116/74 74/115/73
f 108/117/4 107/118/4 110/119/4 109/120/4
f 103/121/75 111/122/75 70/123/75 104/124/75
f 106/125/7 105/126/7 113/127/7 112/128/7
f 116/129/76 265/130/77 270/131/78 249/132/79
f 142/1/80 162/1/80 161/1/81 138/1/81
f 162/1/80 142/1/80 145/1/8 163/1/8
f 164/133/82 167/134/83 141/135/84 143/136/85
f 167/134/83 166/137/86 140/138/87 141/135/84
f 139/139/88 165/140/89 164/141/82 143/142/85
f 226/143/90 159/144/91 157/145/91 228/146/92
f 69/147/46 68/148/53 148/149/52 147/150/43
f 215/151/93 217/152/94 216/153/95 214/154/96
f 191/155/97 202/156/98 201/157/7 190/158/7
f 168/159/99 181/160/100 192/161/100 186/162/101
f 185/163/102 232/164/4 153/165/103 77/166/104
f 189/167/7 206/168/7 205/169/7 188/170/7
f 188/170/7 205/169/7 196/171/7 187/172/7
f 190/158/7 201/157/7 206/168/7 189/167/7
f 182/173/105 158/174/106 202/156/98 191/155/97
f 187/172/7 196/171/7 204/175/7 192/176/7
f 267/177/107 209/178/108 252/179/109 273/180/110
f 207/181/111 268/182/112 272/183/113 250/184/114
f 214/1/96 156/1/115 157/1/116 215/1/93
f 217/185/94 174/186/117 175/187/118 216/188/95
f 216/188/95 175/187/118 156/189/115 214/190/96
f 215/191/93 157/192/116 174/186/117 217/185/94
f 137/193/4 136/194/4 150/94/4 229/195/69
f 237/1/119 233/1/120 241/1/120 242/1/119
f 242/1/119 243/1/2 240/1/2 237/1/119
f 234/196/121 238/142/122 244/197/123 245/198/124
f 115/1/125 116/1/76 249/1/79 248/1/125
f 209/1/108 208/1/126 251/1/126 252/1/109
f 271/199/127 247/200/128 250/184/114 272/183/113
f 248/1/129 146/1/51 66/1/5 115/1/5
f 251/1/129 208/1/5 159/1/5 226/1/90
f 140/201/87 166/202/86 246/203/130 144/204/131
f 235/205/132 239/206/133 246/203/130 166/202/86
f 167/134/83 236/135/134 235/138/132 166/137/86
f 244/133/123 238/136/122 236/135/134 167/134/83
f 245/198/124 244/197/123 254/207/135 255/208/136
f 167/209/83 164/210/82 254/211/135 244/212/123
f 164/141/82 165/140/89 253/213/137 254/214/135
f 255/215/136 254/216/135 253/217/137 256/218/138
f 150/94/4 149/93/44 229/195/69
f 147/80/43 227/108/67 229/111/69 149/81/44
f 148/149/52 228/219/92 227/220/67 147/150/43
f 146/88/51 226/143/90 228/146/92 148/89/52
f 249/132/79 270/131/78 273/180/110 252/179/109
f 248/1/129 251/1/129 226/1/90 146/1/51
f 249/1/79 252/1/109 251/1/129 248/1/129
f 257/221/139 247/222/128 114/223/5 79/224/140
f 250/225/114 257/226/139 169/227/141 207/228/5
f 250/229/114 247/230/128 257/231/139
f 95/232/66 78/233/65 258/234/142 260/235/143
f 151/1/5 230/1/144 262/1/145 261/1/146
f 94/1/71 261/1/146 152/1/147
f 184/1/148 133/1/149 231/1/150 230/1/144
f 232/236/4 231/237/150 133/238/149 153/239/103
f 193/1/151 158/1/106 182/1/105
f 102/1/5 151/1/5 261/1/146 94/1/71
f 152/1/147 261/1/146 262/1/145 263/1/152
f 230/1/144 231/1/150 263/1/152 262/1/145
f 152/240/147 263/241/152 231/237/150 232/236/4
f 264/242/153 271/199/127 270/131/78 265/130/77
f 272/183/113 268/182/112 267/177/107 273/180/110
f 271/199/127 272/183/113 273/180/110 270/131/78
f 264/242/153 114/243/154 247/200/128 271/199/127
f 294/1/19 296/1/20 297/1/21 285/1/22 284/1/23 282/1/24 283/1/25 295/1/26
f 279/48/27 291/49/28 289/50/29 277/51/155
f 293/52/31 281/53/32 285/54/22 297/55/21
f 274/56/33 282/57/24 284/58/23 278/59/34
f 293/60/31 292/61/35 280/62/36 281/63/32
f 295/64/26 283/65/25 276/66/37 288/67/38
f 277/51/155 289/50/29 287/68/39 275/69/156
f 275/69/156 287/68/39 288/70/38 276/71/37
f 274/72/33 277/51/155 275/69/156 276/71/37
f 292/61/35 291/49/28 279/48/27 280/62/36
f 278/73/34 281/63/32 280/62/36 279/48/27
f 285/1/22 281/1/32 278/1/34 284/1/23
f 276/66/37 283/65/25 282/57/24 274/56/33
f 274/72/33 278/73/34 279/48/27 277/51/155
f 286/74/41 290/75/42 296/76/20 294/77/19
f 286/78/41 288/70/38 287/68/39 289/50/29
f 290/79/42 291/49/28 292/61/35 293/60/31
f 297/1/21 296/1/20 290/1/42 293/1/31
f 288/67/38 286/74/41 294/77/19 295/64/26
f 286/78/41 289/50/29 291/49/28 290/79/42
f 318/1/19 320/1/20 321/1/21 309/1/22 308/1/23 306/1/24 307/1/25 319/1/26
f 303/48/27 315/49/28 313/50/29 301/51/30
f 317/52/31 305/53/32 309/54/22 321/55/21
f 298/56/33 306/57/24 308/58/23 302/59/34
f 317/60/31 316/61/35 304/62/36 305/63/32
f 319/64/26 307/65/25 300/66/37 312/67/38
f 301/51/30 313/50/29 311/68/39 299/69/40
f 299/69/40 311/68/39 312/70/38 300/71/37
f 298/72/33 301/51/30 299/69/40 300/71/37
f 316/61/35 315/49/28 303/48/27 304/62/36
f 302/73/34 305/63/32 304/62/36 303/48/27
f 309/1/22 305/1/32 302/1/34 308/1/23
f 300/66/37 307/65/25 306/57/24 298/56/33
f 298/72/33 302/73/34 303/48/27 301/51/30
f 310/74/41 314/75/42 320/76/20 318/77/19
f 310/78/41 312/70/38 311/68/39 313/50/29
f 314/79/42 315/49/28 316/61/35 317/60/31
f 321/1/21 320/1/20 314/1/42 317/1/31
f 312/67/38 310/74/41 318/77/19 319/64/26
f 310/78/41 313/50/29 315/49/28 314/79/42
f 94/1/71 152/1/147 76/114/72
f 76/114/72 152/240/147 232/236/4 185/244/102
f 194/1/5 184/1/148 230/1/144 151/1/5
f 168/159/99 186/162/101 195/245/157 259/246/158
f 257/247/139 79/248/140 322/249/159 323/250/160
f 169/251/141 257/247/139 323/250/160 183/252/161
f 323/253/160 325/254/162 183/252/161
f 323/253/160 322/249/159 325/254/162
f 260/255/143 324/256/163 325/254/162 322/249/159
f 260/255/143 258/257/142 326/258/164 324/256/163
f 259/259/158 195/260/157 324/256/163 326/258/164
f 183/252/161 325/254/162 324/256/163 195/260/157
s 2
f 130/261/165 131/262/166 132/263/167 129/264/168
f 118/265/169 117/266/170 119/154/171 120/267/172
f 100/268/173 99/269/11 108/270/11 109/271/174
f 98/272/11 97/273/11 112/274/11 113/275/11
f 97/273/11 96/276/11 103/277/11 112/274/11
f 99/269/11 98/272/11 113/275/11 108/270/11
f 92/278/175 100/268/173 109/271/174 67/279/176
f 96/276/11 101/280/177 111/281/178 103/277/11
f 117/1/170 118/1/169 66/1/179 68/1/180
f 120/282/172 119/283/171 84/284/181 83/285/182
f 118/286/169 120/282/172 83/285/182 66/287/179
f 119/283/171 117/288/170 68/289/180 84/284/181
f 130/290/165 129/291/168 87/292/183 72/293/184
f 131/1/166 130/1/165 72/1/184 73/1/185
f 129/291/168 132/294/167 90/295/186 87/292/183
f 132/294/167 131/296/166 73/297/185 90/295/186
f 182/298/187 191/299/188 179/300/189 154/301/190
f 223/302/191 222/303/192 225/304/193 224/305/194
f 188/306/195 171/307/196 172/308/197 189/309/198
f 187/310/199 170/311/200 171/307/196 188/306/195
f 195/312/201 204/313/201 155/122/201 183/314/201
f 189/309/198 172/308/197 178/315/202 190/316/203
f 140/1/11 144/1/11 145/1/11 142/1/11 138/1/11 139/1/11 143/1/11 141/1/11
f 211/317/204 213/318/205 212/319/206 210/320/207
f 170/311/200 187/310/199 192/161/208 181/160/208
f 178/315/202 179/300/189 191/299/188 190/316/203
f 201/321/4 202/322/4 203/323/4 200/324/4
f 199/325/11 205/326/11 206/327/11 198/328/11
f 210/1/207 157/1/209 159/1/210 211/1/204
f 213/329/205 173/330/211 174/331/212 212/332/206
f 211/333/204 159/334/210 173/330/211 213/329/205
f 212/332/206 174/331/212 157/335/209 210/336/207
f 223/337/191 137/338/213 177/339/214 222/340/192
f 224/341/194 136/342/215 137/343/213 223/344/191
f 222/340/192 177/339/214 180/345/216 225/346/193
f 225/346/193 180/345/216 136/347/217 224/348/194
f 235/1/7 236/1/7 238/1/7 234/1/7 233/1/7 237/1/7 240/1/7 239/1/7
f 114/1/4 115/1/4 248/1/4 247/1/4
f 207/1/5 208/1/5 251/1/5 250/1/5
f 134/1/218 133/1/219 184/1/220
f 156/349/11 227/220/11 228/219/11 157/350/11
f 135/1/221 134/1/218 184/1/220 193/1/222
f 154/301/190 135/351/221 193/352/222 182/298/187
f 136/1/223 194/1/223 151/1/224 150/1/224
f 73/1/225 150/1/224 151/1/224 102/1/225
f 93/1/226 92/1/175 67/1/176
f 101/280/177 95/353/227 260/354/227 111/281/178
s 4
f 90/355/2 73/356/228 65/357/229 110/358/2
f 84/359/2 85/360/2 105/361/2 106/362/2
f 86/363/2 83/364/2 104/365/2 70/366/2
f 87/367/2 90/355/2 110/358/2 107/368/2
f 85/360/2 87/367/2 107/368/2 105/361/2
f 83/364/2 84/359/2 106/362/2 104/365/2
f 174/369/8 199/370/8 198/371/8 175/372/8
f 180/373/8 203/374/8 160/375/230 136/376/231
f 176/377/8 155/378/8 197/379/8 173/380/8
f 177/381/8 200/382/8 203/374/8 180/373/8
f 169/383/8 183/384/8 155/378/8 176/377/8
f 175/372/8 198/371/8 200/382/8 177/381/8
f 173/380/8 197/379/8 199/370/8 174/369/8
f 192/176/232 204/175/232 195/385/232 186/386/232
f 136/1/231 160/1/230 194/1/233
f 73/1/228 102/1/234 65/1/229
f 145/1/5 144/1/5 246/1/5 163/1/5
f 240/1/5 243/1/5 246/1/5 239/1/5
f 79/387/2 86/363/2 70/366/2 322/388/2
s 8
f 127/389/235 126/390/236 125/391/237 128/392/238
f 105/126/239 107/118/239 108/117/239 113/127/239
f 104/124/240 106/125/240 112/128/240 103/121/240
f 65/393/241 67/394/241 109/120/241 110/119/241
f 114/395/242 264/396/243 266/397/244 86/398/245 79/399/242
f 116/400/246 115/401/247 66/402/247 83/403/248
f 125/404/237 126/405/236 72/406/249 87/407/250
f 126/1/236 127/1/235 69/1/251 72/1/249
f 128/408/238 125/404/237 87/407/250 85/409/252
f 127/410/235 128/408/238 85/409/252 69/411/251
f 158/412/253 193/413/254 194/414/255 160/415/253
f 220/416/256 221/417/257 218/418/258 219/419/259
f 196/124/260 197/121/260 155/122/260 204/313/260
f 198/328/261 206/327/261 201/321/261 200/324/261
f 186/386/262 195/385/262 183/384/262 169/383/262
f 209/420/263 173/421/264 159/421/265 208/420/265
f 218/422/258 177/423/266 137/424/267 219/425/259
f 219/426/259 137/427/267 156/428/268 220/429/256
f 221/430/257 175/431/269 177/423/266 218/422/258
f 220/432/256 156/433/268 175/431/269 221/430/257
f 207/434/270 169/435/270 176/436/271 269/437/272 268/438/273
f 266/397/244 265/439/274 116/400/246 83/403/248 86/398/245
f 267/440/275 269/437/272 176/436/271 173/421/264 209/420/263
f 193/1/254 184/1/5 194/1/255
f 264/396/243 265/439/274 266/397/244
f 267/440/275 268/438/273 269/437/272
f 260/441/276 322/442/276 70/123/276 111/122/276
s 16
f 122/443/277 121/444/278 123/445/279 124/446/280
f 121/1/278 122/1/277 68/1/281 69/1/282
f 124/447/280 123/448/279 85/449/283 84/450/284
f 123/448/279 121/451/278 69/452/282 85/449/283
f 122/453/277 124/447/280 84/450/284 68/454/281
f 197/121/285 196/124/285 205/326/285 199/325/285
f 160/415/286 203/323/286 202/322/286 158/412/286
f 67/394/287 65/393/287 102/455/288 93/456/289
f 93/1/289 102/1/288 94/1/5
f 95/353/290 79/387/290 322/388/290 260/354/290
