%YAML 1.1
%TAG !u! tag:unity3d.com,2011:
--- !u!21 &2100000
Material:
  serializedVersion: 5
  m_ObjectHideFlags: 0
  m_PrefabParentObject: {fileID: 0}
  m_PrefabInternal: {fileID: 0}
  m_Name: WaterWaveShieldMobile
  m_Shader: {fileID: 4800000, guid: 435b429f042368244b733565e3acc046, type: 3}
  m_ShaderKeywords: 
  m_LightmapFlags: 5
  m_CustomRenderQueue: -1
  m_SavedProperties:
    serializedVersion: 2
    m_TexEnvs:
      data:
        first:
          name: _MainTex
        second:
          m_Texture: {fileID: 0}
          m_Scale: {x: 1, y: 1}
          m_Offset: {x: 0, y: 0}
      data:
        first:
          name: _BumpMap
        second:
          m_Texture: {fileID: 2800000, guid: a5847f42ba85ca04d950a0e9e1c78470, type: 3}
          m_Scale: {x: 1, y: 1}
          m_Offset: {x: 0, y: 0}
      data:
        first:
          name: _NormalMap
        second:
          m_Texture: {fileID: 0}
          m_Scale: {x: 1, y: 1}
          m_Offset: {x: 0, y: 0}
      data:
        first:
          name: _GlossMap
        second:
          m_Texture: {fileID: 2800000, guid: 5cc28bceff05e1944836e09f360fb6c3, type: 3}
          m_Scale: {x: 1, y: 1}
          m_Offset: {x: 0, y: 0}
      data:
        first:
          name: _Cube
        second:
          m_Texture: {fileID: 8900000, guid: e20fe7ddd5bd687438b2ea6aac51b0b4, type: 2}
          m_Scale: {x: 1, y: 1}
          m_Offset: {x: 0, y: 0}
      data:
        first:
          name: _HeightMap
        second:
          m_Texture: {fileID: 2800000, guid: d6eb965cd64d6104dad5ee61942a9978, type: 3}
          m_Scale: {x: 1, y: 1}
          m_Offset: {x: 0, y: 0}
      data:
        first:
          name: _ReflectionMap
        second:
          m_Texture: {fileID: 2800000, guid: 5cc28bceff05e1944836e09f360fb6c3, type: 3}
          m_Scale: {x: 1, y: 1}
          m_Offset: {x: 0, y: 0}
    m_Floats:
      data:
        first:
          name: _Cutoff
        second: .839285672
      data:
        first:
          name: _Shininess
        second: 2.05470037
      data:
        first:
          name: _BumpAmt
        second: 15.000001
      data:
        first:
          name: _Height
        second: .25
      data:
        first:
          name: _OffsetXHeightMap
        second: 0
      data:
        first:
          name: _OffsetYHeightMap
        second: 0
      data:
        first:
          name: _FPOW
        second: 2
      data:
        first:
          name: _R0
        second: .5
      data:
        first:
          name: _Opacity
        second: .678571403
      data:
        first:
          name: _OffsetHeightMap
        second: 1
      data:
        first:
          name: _CubeMapOpacity
        second: .142857149
      data:
        first:
          name: _RimPower
        second: 8
      data:
        first:
          name: _ReflectionStrength
        second: 20
      data:
        first:
          name: _LightStr
        second: .410714269
      data:
        first:
          name: _ColorIntensity
        second: 1
      data:
        first:
          name: _RefractiveStrength
        second: 1
      data:
        first:
          name: _Amount
        second: .5
    m_Colors:
      data:
        first:
          name: _Color
        second: {r: 1, g: 1, b: 1, a: 1}
      data:
        first:
          name: _SpecColor
        second: {r: 1, g: 1, b: 1, a: 1}
      data:
        first:
          name: _ReflectColor
        second: {r: .41836074, g: .433876038, b: .536764741, a: 1}
      data:
        first:
          name: _RimColor
        second: {r: .508704543, g: .594748437, b: .713235259, a: 1}
