%YAML 1.1
%TAG !u! tag:unity3d.com,2011:
--- !u!21 &2100000
Material:
  serializedVersion: 5
  m_ObjectHideFlags: 0
  m_PrefabParentObject: {fileID: 0}
  m_PrefabInternal: {fileID: 0}
  m_Name: distortionAlternative
  m_Shader: {fileID: 4800000, guid: 79c8e83054f3f4a4b966864a6812dfce, type: 3}
  m_ShaderKeywords: 
  m_LightmapFlags: 5
  m_CustomRenderQueue: -1
  m_SavedProperties:
    serializedVersion: 2
    m_TexEnvs:
      data:
        first:
          name: _MainTex
        second:
          m_Texture: {fileID: 2800000, guid: f9bb0fc00d645b74a9f69161d166cbc6, type: 3}
          m_Scale: {x: .125, y: .25}
          m_Offset: {x: .25, y: .25}
      data:
        first:
          name: _BumpMap
        second:
          m_Texture: {fileID: 2800000, guid: c8b3e5216f13f1248a0857a10afc8fad, type: 3}
          m_Scale: {x: .125, y: .25}
          m_Offset: {x: .25, y: .25}
      data:
        first:
          name: _Cube
        second:
          m_Texture: {fileID: 0}
          m_Scale: {x: 1, y: 1}
          m_Offset: {x: 0, y: 0}
      data:
        first:
          name: _HeightMap
        second:
          m_Texture: {fileID: 0}
          m_Scale: {x: 1, y: 1}
          m_Offset: {x: 0, y: 0}
      data:
        first:
          name: _CutoutTex
        second:
          m_Texture: {fileID: 2800000, guid: 969fe4c0a05aa7548b2eb4c60af3707c, type: 3}
          m_Scale: {x: 1, y: 1}
          m_Offset: {x: 0, y: 0}
    m_Floats:
      data:
        first:
          name: _Cutoff
        second: .5
      data:
        first:
          name: _Shininess
        second: .078125
      data:
        first:
          name: _InvFade
        second: 2.8687501
      data:
        first:
          name: _ColorStrength
        second: 1
      data:
        first:
          name: _BumpAmt
        second: 100
      data:
        first:
          name: _Height
        second: .300000012
      data:
        first:
          name: _OffsetXHeightMap
        second: 0
      data:
        first:
          name: _OffsetYHeightMap
        second: 0
      data:
        first:
          name: _FPOW
        second: 5
      data:
        first:
          name: _R0
        second: .0500000007
      data:
        first:
          name: _CubeMapOpacity
        second: 1
      data:
        first:
          name: _Cutout
        second: 1
      data:
        first:
          name: _CutOutLightCore
        second: .5
    m_Colors:
      data:
        first:
          name: _Color
        second: {r: .257352948, g: .47758621, b: 1, a: 1}
      data:
        first:
          name: _SpecColor
        second: {r: 0, g: 0, b: 0, a: 1}
      data:
        first:
          name: _ReflectColor
        second: {r: 0, g: 0, b: 0, a: .501960814}
      data:
        first:
          name: _TintColor
        second: {r: .191176474, g: .732251763, b: 1, a: .501960814}
