%YAML 1.1
%TAG !u! tag:unity3d.com,2011:
--- !u!21 &2100000
Material:
  serializedVersion: 5
  m_ObjectHideFlags: 0
  m_PrefabParentObject: {fileID: 0}
  m_PrefabInternal: {fileID: 0}
  m_Name: Core
  m_Shader: {fileID: 4800000, guid: 79c8e83054f3f4a4b966864a6812dfce, type: 3}
  m_ShaderKeywords: 
  m_LightmapFlags: 5
  m_CustomRenderQueue: -1
  m_SavedProperties:
    serializedVersion: 2
    m_TexEnvs:
      data:
        first:
          name: _MainTex
        second:
          m_Texture: {fileID: 2800000, guid: ce516a77ce4aca7449b514cdae31c1e8, type: 3}
          m_Scale: {x: 1, y: 1}
          m_Offset: {x: 0, y: 0}
      data:
        first:
          name: _BumpMap
        second:
          m_Texture: {fileID: 2800000, guid: 9a800dc6e569b594db0f0c272ea51a1c, type: 3}
          m_Scale: {x: 1, y: 1}
          m_Offset: {x: 0, y: 0}
      data:
        first:
          name: _DecalTex
        second:
          m_Texture: {fileID: 0}
          m_Scale: {x: 1, y: 1}
          m_Offset: {x: 0, y: 0}
    m_Floats:
      data:
        first:
          name: _Shininess
        second: .699999988
      data:
        first:
          name: _InvFade
        second: 3
      data:
        first:
          name: _Emission
        second: .5
      data:
        first:
          name: _ColorStrength
        second: 1
      data:
        first:
          name: _BumpAmt
        second: 45.7142868
      data:
        first:
          name: _FPOW
        second: 5
      data:
        first:
          name: _R0
        second: .0500000007
      data:
        first:
          name: _TintStrength
        second: 2.16071415
      data:
        first:
          name: _CoreStrength
        second: .732142866
      data:
        first:
          name: _CutOutLightCore
        second: .696428537
      data:
        first:
          name: _Opacity
        second: 0
    m_Colors:
      data:
        first:
          name: _Color
        second: {r: 1, g: 1, b: 1, a: .701960802}
      data:
        first:
          name: _SpecColor
        second: {r: 1, g: 1, b: 1, a: 1}
      data:
        first:
          name: _TintColor
        second: {r: .0901960805, g: .450980395, b: 1, a: 1}
      data:
        first:
          name: _Emission
        second: {r: 0, g: 0, b: 0, a: 0}
      data:
        first:
          name: _RimColor
        second: {r: 1, g: 1, b: 1, a: .5}
      data:
        first:
          name: _CoreColor
        second: {r: .5, g: .698275805, b: 1, a: 1}
      data:
        first:
          name: _EmisColor
        second: {r: .200000003, g: .200000003, b: .200000003, a: 0}
