%YAML 1.1
%TAG !u! tag:unity3d.com,2011:
--- !u!21 &2100000
Material:
  serializedVersion: 6
  m_ObjectHideFlags: 0
  m_PrefabParentObject: {fileID: 0}
  m_PrefabInternal: {fileID: 0}
  m_Name: Astro_Stars.MAT
  m_Shader: {fileID: 4800000, guid: c8c05b69c19f0ab4f8b2446892c06bdc, type: 3}
  m_ShaderKeywords: 
  m_LightmapFlags: 5
  m_CustomRenderQueue: 2000
  stringTagMap: {}
  m_SavedProperties:
    serializedVersion: 2
    m_TexEnvs:
      data:
        first:
          name: _MainTex
        second:
          m_Texture: {fileID: 0}
          m_Scale: {x: 1, y: 1}
          m_Offset: {x: 0, y: 0}
      data:
        first:
          name: _BumpMap
        second:
          m_Texture: {fileID: 0}
          m_Scale: {x: 1, y: 1}
          m_Offset: {x: 0, y: 0}
      data:
        first:
          name: _DetailNormalMap
        second:
          m_Texture: {fileID: 0}
          m_Scale: {x: 1, y: 1}
          m_Offset: {x: 0, y: 0}
      data:
        first:
          name: _ParallaxMap
        second:
          m_Texture: {fileID: 0}
          m_Scale: {x: 1, y: 1}
          m_Offset: {x: 0, y: 0}
      data:
        first:
          name: _OcclusionMap
        second:
          m_Texture: {fileID: 0}
          m_Scale: {x: 1, y: 1}
          m_Offset: {x: 0, y: 0}
      data:
        first:
          name: _EmissionMap
        second:
          m_Texture: {fileID: 0}
          m_Scale: {x: 1, y: 1}
          m_Offset: {x: 0, y: 0}
      data:
        first:
          name: _DetailMask
        second:
          m_Texture: {fileID: 0}
          m_Scale: {x: 1, y: 1}
          m_Offset: {x: 0, y: 0}
      data:
        first:
          name: _DetailAlbedoMap
        second:
          m_Texture: {fileID: 0}
          m_Scale: {x: 1, y: 1}
          m_Offset: {x: 0, y: 0}
      data:
        first:
          name: _MetallicGlossMap
        second:
          m_Texture: {fileID: 0}
          m_Scale: {x: 1, y: 1}
          m_Offset: {x: 0, y: 0}
      data:
        first:
          name: _DiffuseAlphaTEX
        second:
          m_Texture: {fileID: 2800000, guid: 05f8de7f980ec4f4b972c38ad3db0ebb, type: 3}
          m_Scale: {x: 1, y: 1}
          m_Offset: {x: 0, y: 0}
      data:
        first:
          name: _DiffuseAlphaTEX_copy
        second:
          m_Texture: {fileID: 2800000, guid: 05f8de7f980ec4f4b972c38ad3db0ebb, type: 3}
          m_Scale: {x: 1, y: 1}
          m_Offset: {x: 0, y: 0}
      data:
        first:
          name: _DiffuseAlphaTEX_copy_copy
        second:
          m_Texture: {fileID: 2800000, guid: 05f8de7f980ec4f4b972c38ad3db0ebb, type: 3}
          m_Scale: {x: 1, y: 1}
          m_Offset: {x: 0, y: 0}
      data:
        first:
          name: _DiffuseAlphaTEX_copy_copy_copy
        second:
          m_Texture: {fileID: 2800000, guid: 05f8de7f980ec4f4b972c38ad3db0ebb, type: 3}
          m_Scale: {x: 1, y: 1}
          m_Offset: {x: 0, y: 0}
      data:
        first:
          name: _node_2938
        second:
          m_Texture: {fileID: 0}
          m_Scale: {x: 1, y: 1}
          m_Offset: {x: 0, y: 0}
      data:
        first:
          name: _node_7943
        second:
          m_Texture: {fileID: 2800000, guid: 600e185cf40947845b6220297740efbb, type: 3}
          m_Scale: {x: 1, y: 1}
          m_Offset: {x: 0, y: 0}
      data:
        first:
          name: _node_6288
        second:
          m_Texture: {fileID: 0}
          m_Scale: {x: 1, y: 1}
          m_Offset: {x: 0, y: 0}
      data:
        first:
          name: _node_5857
        second:
          m_Texture: {fileID: 0}
          m_Scale: {x: 1, y: 1}
          m_Offset: {x: 0, y: 0}
      data:
        first:
          name: _node_4872
        second:
          m_Texture: {fileID: 0}
          m_Scale: {x: 1, y: 1}
          m_Offset: {x: 0, y: 0}
      data:
        first:
          name: _node_7710
        second:
          m_Texture: {fileID: 0}
          m_Scale: {x: 1, y: 1}
          m_Offset: {x: 0, y: 0}
      data:
        first:
          name: _node_8052
        second:
          m_Texture: {fileID: 0}
          m_Scale: {x: 1, y: 1}
          m_Offset: {x: 0, y: 0}
    m_Floats:
      data:
        first:
          name: _SrcBlend
        second: 1
      data:
        first:
          name: _DstBlend
        second: 0
      data:
        first:
          name: _Cutoff
        second: 0.5
      data:
        first:
          name: _Parallax
        second: 0.02
      data:
        first:
          name: _ZWrite
        second: 1
      data:
        first:
          name: _Glossiness
        second: 0.5
      data:
        first:
          name: _BumpScale
        second: 1
      data:
        first:
          name: _OcclusionStrength
        second: 1
      data:
        first:
          name: _DetailNormalMapScale
        second: 1
      data:
        first:
          name: _UVSec
        second: 0
      data:
        first:
          name: _Mode
        second: 0
      data:
        first:
          name: _Metallic
        second: 0
      data:
        first:
          name: _DepR
        second: 10
      data:
        first:
          name: _HeiR
        second: 0
      data:
        first:
          name: _DepR_copy
        second: 10
      data:
        first:
          name: _HeiR_copy
        second: 0
      data:
        first:
          name: _DepR_copy_copy
        second: 10
      data:
        first:
          name: _HeiR_copy_copy
        second: 0
      data:
        first:
          name: _DepR_copy_copy_copy
        second: 10
      data:
        first:
          name: _HeiR_copy_copy_copy
        second: 0
      data:
        first:
          name: _rotator_1
        second: 0.004
      data:
        first:
          name: _rotator_2
        second: -0.004
      data:
        first:
          name: _rotator_3
        second: 0.0045
      data:
        first:
          name: _rotator_4
        second: -0.0045
      data:
        first:
          name: _node_3403
        second: 0.015
      data:
        first:
          name: _node_7929
        second: 0.01
    m_Colors:
      data:
        first:
          name: _EmissionColor
        second: {r: 0, g: 0, b: 0, a: 1}
      data:
        first:
          name: _Color
        second: {r: 0.8, g: 0.8, b: 0.8, a: 1}
