%YAML 1.1
%TAG !u! tag:unity3d.com,2011:
--- !u!21 &2100000
Material:
  serializedVersion: 6
  m_ObjectHideFlags: 0
  m_PrefabParentObject: {fileID: 0}
  m_PrefabInternal: {fileID: 0}
  m_Name: Astro_SecretWall.MAT
  m_Shader: {fileID: 4800000, guid: ec1a46ae9a49d53428b501bc31dc418a, type: 3}
  m_ShaderKeywords: _EMISSION
  m_LightmapFlags: 1
  m_CustomRenderQueue: 3000
  stringTagMap: {}
  m_SavedProperties:
    serializedVersion: 2
    m_TexEnvs:
    - first:
        name: _BumpMap
      second:
        m_Texture: {fileID: 0}
        m_Scale: {x: 1, y: 1}
        m_Offset: {x: 0, y: 0}
    - first:
        name: _DetailAlbedoMap
      second:
        m_Texture: {fileID: 0}
        m_Scale: {x: 1, y: 1}
        m_Offset: {x: 0, y: 0}
    - first:
        name: _DetailMask
      second:
        m_Texture: {fileID: 0}
        m_Scale: {x: 1, y: 1}
        m_Offset: {x: 0, y: 0}
    - first:
        name: _DetailNormalMap
      second:
        m_Texture: {fileID: 0}
        m_Scale: {x: 1, y: 1}
        m_Offset: {x: 0, y: 0}
    - first:
        name: _DiffuseAlphaTEX_copy
      second:
        m_Texture: {fileID: 2800000, guid: 05f8de7f980ec4f4b972c38ad3db0ebb, type: 3}
        m_Scale: {x: 1, y: 1}
        m_Offset: {x: 0, y: 0}
    - first:
        name: _DiffuseAlphaTEX_copy_copy
      second:
        m_Texture: {fileID: 2800000, guid: 05f8de7f980ec4f4b972c38ad3db0ebb, type: 3}
        m_Scale: {x: 1, y: 1}
        m_Offset: {x: 0, y: 0}
    - first:
        name: _DiffuseAlphaTEX_copy_copy_copy
      second:
        m_Texture: {fileID: 2800000, guid: 05f8de7f980ec4f4b972c38ad3db0ebb, type: 3}
        m_Scale: {x: 1, y: 1}
        m_Offset: {x: 0, y: 0}
    - first:
        name: _DiffuseAlphaTEX_copy_copy_copy_copy
      second:
        m_Texture: {fileID: 2800000, guid: 05f8de7f980ec4f4b972c38ad3db0ebb, type: 3}
        m_Scale: {x: 1, y: 1}
        m_Offset: {x: 0, y: 0}
    - first:
        name: _EmissionMap
      second:
        m_Texture: {fileID: 0}
        m_Scale: {x: 1, y: 1}
        m_Offset: {x: 0, y: 0}
    - first:
        name: _MainTex
      second:
        m_Texture: {fileID: 0}
        m_Scale: {x: 1, y: 1}
        m_Offset: {x: 0, y: 0}
    - first:
        name: _MetallicGlossMap
      second:
        m_Texture: {fileID: 0}
        m_Scale: {x: 1, y: 1}
        m_Offset: {x: 0, y: 0}
    - first:
        name: _OcclusionMap
      second:
        m_Texture: {fileID: 0}
        m_Scale: {x: 1, y: 1}
        m_Offset: {x: 0, y: 0}
    - first:
        name: _ParallaxMap
      second:
        m_Texture: {fileID: 0}
        m_Scale: {x: 1, y: 1}
        m_Offset: {x: 0, y: 0}
    - first:
        name: _node_7943_copy
      second:
        m_Texture: {fileID: 2800000, guid: 600e185cf40947845b6220297740efbb, type: 3}
        m_Scale: {x: 1, y: 1}
        m_Offset: {x: 0, y: 0}
    m_Floats:
    - first:
        name: _BumpScale
      second: 1
    - first:
        name: _Cutoff
      second: 0.5
    - first:
        name: _DepR_copy
      second: 10
    - first:
        name: _DepR_copy_copy
      second: 8
    - first:
        name: _DepR_copy_copy_copy
      second: 7
    - first:
        name: _DepR_copy_copy_copy_copy
      second: 6
    - first:
        name: _DetailNormalMapScale
      second: 1
    - first:
        name: _DstBlend
      second: 0
    - first:
        name: _GlossMapScale
      second: 1
    - first:
        name: _Glossiness
      second: 0.5
    - first:
        name: _GlossyReflections
      second: 1
    - first:
        name: _HeiR_copy
      second: 0
    - first:
        name: _HeiR_copy_copy
      second: 0
    - first:
        name: _HeiR_copy_copy_copy
      second: 0
    - first:
        name: _HeiR_copy_copy_copy_copy
      second: 0
    - first:
        name: _Metallic
      second: 0
    - first:
        name: _Mode
      second: 0
    - first:
        name: _OcclusionStrength
      second: 1
    - first:
        name: _Parallax
      second: 0.02
    - first:
        name: _SmoothnessTextureChannel
      second: 0
    - first:
        name: _SpecularHighlights
      second: 1
    - first:
        name: _SrcBlend
      second: 1
    - first:
        name: _UVSec
      second: 0
    - first:
        name: _ZWrite
      second: 1
    - first:
        name: _density_copy_copy_copy
      second: 1
    - first:
        name: _fadepower_copy_copy_copy
      second: 5
    - first:
        name: _node_3403_copy
      second: 0.02907673
    - first:
        name: _rotator_2
      second: 0.4988696
    - first:
        name: _rotator_3
      second: 0
    - first:
        name: _rotator_4
      second: 0
    - first:
        name: _rotator_5
      second: 0
    m_Colors:
    - first:
        name: _Color
      second: {r: 0.00943666, g: 0.8000001, b: 0.0041583222, a: 1}
    - first:
        name: _EmissionColor
      second: {r: 0, g: 0, b: 0, a: 1}
    - first:
        name: _node_2263_copy_copy_copy
      second: {r: 0.6172414, g: 1, b: 0.9324544, a: 0.8}
    - first:
        name: _node_940_copy_copy_copy
      second: {r: 0, g: 0, b: 0, a: -0.1}
