%YAML 1.1
%TAG !u! tag:unity3d.com,2011:
--- !u!21 &2100000
Material:
  serializedVersion: 6
  m_ObjectHideFlags: 0
  m_PrefabParentObject: {fileID: 0}
  m_PrefabInternal: {fileID: 0}
  m_Name: Blue_NoStretch.MAT
  m_Shader: {fileID: 4800000, guid: 5a35a121cafbddc4a93425a10d94fa05, type: 3}
  m_ShaderKeywords: _POSTERIZE_ON
  m_LightmapFlags: 5
  m_CustomRenderQueue: 2000
  stringTagMap: {}
  m_SavedProperties:
    serializedVersion: 2
    m_TexEnvs:
    - first:
        name: _BumpMap
      second:
        m_Texture: {fileID: 0}
        m_Scale: {x: 1, y: 1}
        m_Offset: {x: 0, y: 0}
    - first:
        name: _DetailAlbedoMap
      second:
        m_Texture: {fileID: 0}
        m_Scale: {x: 1, y: 1}
        m_Offset: {x: 0, y: 0}
    - first:
        name: _DetailMask
      second:
        m_Texture: {fileID: 0}
        m_Scale: {x: 1, y: 1}
        m_Offset: {x: 0, y: 0}
    - first:
        name: _DetailNormalMap
      second:
        m_Texture: {fileID: 0}
        m_Scale: {x: 1, y: 1}
        m_Offset: {x: 0, y: 0}
    - first:
        name: _EmissionMap
      second:
        m_Texture: {fileID: 0}
        m_Scale: {x: 1, y: 1}
        m_Offset: {x: 0, y: 0}
    - first:
        name: _MainTex
      second:
        m_Texture: {fileID: 0}
        m_Scale: {x: 1, y: 1}
        m_Offset: {x: 0, y: 0}
    - first:
        name: _MetallicGlossMap
      second:
        m_Texture: {fileID: 0}
        m_Scale: {x: 1, y: 1}
        m_Offset: {x: 0, y: 0}
    - first:
        name: _OcclusionMap
      second:
        m_Texture: {fileID: 0}
        m_Scale: {x: 1, y: 1}
        m_Offset: {x: 0, y: 0}
    - first:
        name: _ParallaxMap
      second:
        m_Texture: {fileID: 0}
        m_Scale: {x: 1, y: 1}
        m_Offset: {x: 0, y: 0}
    - first:
        name: _Texture
      second:
        m_Texture: {fileID: 2800000, guid: bd0e5eaacbb887f4998743d549c365e9, type: 3}
        m_Scale: {x: 1, y: 1}
        m_Offset: {x: 0, y: 0}
    - first:
        name: _node_3280
      second:
        m_Texture: {fileID: 2800000, guid: bd0e5eaacbb887f4998743d549c365e9, type: 3}
        m_Scale: {x: 1, y: 1}
        m_Offset: {x: 0, y: 0}
    - first:
        name: _node_5258
      second:
        m_Texture: {fileID: 2800000, guid: ed022fea07aefa64192fa64c637f2690, type: 3}
        m_Scale: {x: 1, y: 1}
        m_Offset: {x: 0, y: 0}
    m_Floats:
    - first:
        name: _BumpScale
      second: 1
    - first:
        name: _Cutoff
      second: 0.5
    - first:
        name: _DetailNormalMapScale
      second: 1
    - first:
        name: _DstBlend
      second: 0
    - first:
        name: _Fresnel
      second: 0
    - first:
        name: _FresnelExp
      second: 5
    - first:
        name: _Glossiness
      second: 0.5
    - first:
        name: _Metallic
      second: 0
    - first:
        name: _Mode
      second: 0
    - first:
        name: _OcclusionStrength
      second: 1
    - first:
        name: _Parallax
      second: 0.02
    - first:
        name: _Posterize
      second: 1
    - first:
        name: _PosterizeValue
      second: 3
    - first:
        name: _SpeedPanner
      second: 0.025
    - first:
        name: _SrcBlend
      second: 1
    - first:
        name: _Tiling
      second: 2
    - first:
        name: _UVSec
      second: 0
    - first:
        name: _ZWrite
      second: 1
    - first:
        name: _gottagofast
      second: 2.960048
    - first:
        name: _node_4093
      second: 0
    - first:
        name: _node_4889
      second: 0.02
    - first:
        name: _node_6559
      second: 2
    - first:
        name: _numberoflight
      second: 1
    - first:
        name: _slideroutline
      second: 0.09932142
    m_Colors:
    - first:
        name: _Color
      second: {r: 0, g: 0, b: 1, a: 1}
    - first:
        name: _EmissionColor
      second: {r: 0, g: 0, b: 0, a: 1}
    - first:
        name: _FresnelClr
      second: {r: 0, g: 0.2352941, b: 1, a: 1}
    - first:
        name: _base
      second: {r: 0, g: 0, b: 1, a: 1}
    - first:
        name: _coloroutline
      second: {r: 0.058823586, g: 0, b: 1, a: 1}
    - first:
        name: _glow
      second: {r: 0.2313726, g: 0.9803922, b: 0.7215686, a: 1}
    - first:
        name: _node_4297
      second: {r: 0.5, g: 0.5, b: 0.5, a: 1}
    - first:
        name: _node_5592
      second: {r: 0.5, g: 0.5, b: 0.5, a: 1}
    - first:
        name: _node_7920
      second: {r: 0, g: 0.1310344, b: 1, a: 1}
