%YAML 1.1
%TAG !u! tag:unity3d.com,2011:
--- !u!21 &2100000
Material:
  serializedVersion: 6
  m_ObjectHideFlags: 0
  m_PrefabParentObject: {fileID: 0}
  m_PrefabInternal: {fileID: 0}
  m_Name: Ologram_Green.MAT
  m_Shader: {fileID: 4800000, guid: 2b8c6668a34247d418c2fab7500c4d86, type: 3}
  m_ShaderKeywords: 
  m_LightmapFlags: 5
  m_CustomRenderQueue: 2000
  stringTagMap: {}
  m_SavedProperties:
    serializedVersion: 2
    m_TexEnvs:
    - first:
        name: _BumpMap
      second:
        m_Texture: {fileID: 0}
        m_Scale: {x: 1, y: 1}
        m_Offset: {x: 0, y: 0}
    - first:
        name: _DetailAlbedoMap
      second:
        m_Texture: {fileID: 0}
        m_Scale: {x: 1, y: 1}
        m_Offset: {x: 0, y: 0}
    - first:
        name: _DetailMask
      second:
        m_Texture: {fileID: 0}
        m_Scale: {x: 1, y: 1}
        m_Offset: {x: 0, y: 0}
    - first:
        name: _DetailNormalMap
      second:
        m_Texture: {fileID: 0}
        m_Scale: {x: 1, y: 1}
        m_Offset: {x: 0, y: 0}
    - first:
        name: _DistorsionTEX
      second:
        m_Texture: {fileID: 2800000, guid: ed022fea07aefa64192fa64c637f2690, type: 3}
        m_Scale: {x: 1, y: 1}
        m_Offset: {x: 0, y: 0}
    - first:
        name: _EmissionMap
      second:
        m_Texture: {fileID: 0}
        m_Scale: {x: 1, y: 1}
        m_Offset: {x: 0, y: 0}
    - first:
        name: _MainTex
      second:
        m_Texture: {fileID: 0}
        m_Scale: {x: 1, y: 1}
        m_Offset: {x: 0, y: 0}
    - first:
        name: _MetallicGlossMap
      second:
        m_Texture: {fileID: 0}
        m_Scale: {x: 1, y: 1}
        m_Offset: {x: 0, y: 0}
    - first:
        name: _NubeTEX
      second:
        m_Texture: {fileID: 2800000, guid: ae0049a4a1783f946ac225627cf79c28, type: 3}
        m_Scale: {x: 1, y: 1}
        m_Offset: {x: 0, y: 0}
    - first:
        name: _OcclusionMap
      second:
        m_Texture: {fileID: 0}
        m_Scale: {x: 1, y: 1}
        m_Offset: {x: 0, y: 0}
    - first:
        name: _ParallaxMap
      second:
        m_Texture: {fileID: 0}
        m_Scale: {x: 1, y: 1}
        m_Offset: {x: 0, y: 0}
    - first:
        name: _node_1859
      second:
        m_Texture: {fileID: 2800000, guid: ae0049a4a1783f946ac225627cf79c28, type: 3}
        m_Scale: {x: 1, y: 1}
        m_Offset: {x: 0, y: 0}
    - first:
        name: _node_2426
      second:
        m_Texture: {fileID: 2800000, guid: ed022fea07aefa64192fa64c637f2690, type: 3}
        m_Scale: {x: 1, y: 1}
        m_Offset: {x: 0, y: 0}
    m_Floats:
    - first:
        name: _BumpScale
      second: 1
    - first:
        name: _Cutoff
      second: 0.5
    - first:
        name: _DetailNormalMapScale
      second: 1
    - first:
        name: _DstBlend
      second: 0
    - first:
        name: _Glossiness
      second: 0.5
    - first:
        name: _Metallic
      second: 0
    - first:
        name: _Mode
      second: 0
    - first:
        name: _OcclusionStrength
      second: 1
    - first:
        name: _Parallax
      second: 0.02
    - first:
        name: _RotaorNube
      second: -0.05
    - first:
        name: _SPEED
      second: 0.01
    - first:
        name: _SrcBlend
      second: 1
    - first:
        name: _UVSec
      second: 0
    - first:
        name: _ZWrite
      second: 1
    - first:
        name: _fresnel
      second: 0.5
    - first:
        name: _gappend
      second: 1
    - first:
        name: _node_3869
      second: 0.5
    - first:
        name: _node_4352
      second: 0
    - first:
        name: _node_7131
      second: 1
    - first:
        name: _rappend
      second: 0.5
    - first:
        name: _sliderchiaro
      second: 0
    - first:
        name: _tile
      second: 2
    - first:
        name: _time
      second: 1
    - first:
        name: _timecurl
      second: -0.09
    - first:
        name: _timenube
      second: 0.1
    - first:
        name: _u
      second: 0.5
    - first:
        name: _v
      second: 1
    m_Colors:
    - first:
        name: _2color
      second: {r: 0.2784314, g: 0.80784315, b: 0.4117647, a: 1}
    - first:
        name: _Color
      second: {r: 0.12372605, g: 0.8000001, b: 0.09705005, a: 1}
    - first:
        name: _ColorNubeDark
      second: {r: 0, g: 0.6764706, b: 0, a: 1}
    - first:
        name: _ColorNubeLight
      second: {r: 0, g: 1, b: 0, a: 1}
    - first:
        name: _EmissionColor
      second: {r: 0, g: 0, b: 0, a: 1}
    - first:
        name: _colorechiaro
      second: {r: 0.044827584, g: 0.80344826, b: 0.18029459, a: 1}
    - first:
        name: _node_1429
      second: {r: 0, g: 1, b: 0, a: 1}
    - first:
        name: _node_5189
      second: {r: 0, g: 0.6745098, b: 0, a: 1}
    - first:
        name: _node_7503
      second: {r: 0.5, g: 0.5, b: 0.5, a: 1}
    - first:
        name: _solidcolor
      second: {r: 0, g: 1, b: 0, a: 1}
