%YAML 1.1
%TAG !u! tag:unity3d.com,2011:
--- !u!21 &2100000
Material:
  serializedVersion: 6
  m_ObjectHideFlags: 0
  m_PrefabParentObject: {fileID: 0}
  m_PrefabInternal: {fileID: 0}
  m_Name: SoniaShader.002
  m_Shader: {fileID: 4800000, guid: e19e4efe45a0972479d69609e64123f8, type: 3}
  m_ShaderKeywords: _EMISSION _YOU_WRONG_VO_COPY_ON
  m_LightmapFlags: 1
  m_CustomRenderQueue: 2000
  stringTagMap: {}
  m_SavedProperties:
    serializedVersion: 2
    m_TexEnvs:
    - first:
        name: _BumpMap
      second:
        m_Texture: {fileID: 0}
        m_Scale: {x: 1, y: 1}
        m_Offset: {x: 0, y: 0}
    - first:
        name: _DetailAlbedoMap
      second:
        m_Texture: {fileID: 0}
        m_Scale: {x: 1, y: 1}
        m_Offset: {x: 0, y: 0}
    - first:
        name: _DetailMask
      second:
        m_Texture: {fileID: 0}
        m_Scale: {x: 1, y: 1}
        m_Offset: {x: 0, y: 0}
    - first:
        name: _DetailNormalMap
      second:
        m_Texture: {fileID: 0}
        m_Scale: {x: 1, y: 1}
        m_Offset: {x: 0, y: 0}
    - first:
        name: _DiffuseAlphaTEX
      second:
        m_Texture: {fileID: 2800000, guid: 05f8de7f980ec4f4b972c38ad3db0ebb, type: 3}
        m_Scale: {x: 1, y: 1}
        m_Offset: {x: 0, y: 0}
    - first:
        name: _DiffuseAlphaTEX_copy
      second:
        m_Texture: {fileID: 2800000, guid: 05f8de7f980ec4f4b972c38ad3db0ebb, type: 3}
        m_Scale: {x: 1, y: 1}
        m_Offset: {x: 0, y: 0}
    - first:
        name: _DiffuseAlphaTEX_copy_copy
      second:
        m_Texture: {fileID: 2800000, guid: 05f8de7f980ec4f4b972c38ad3db0ebb, type: 3}
        m_Scale: {x: 1, y: 1}
        m_Offset: {x: 0, y: 0}
    - first:
        name: _DiffuseAlphaTEX_copy_copy_copy
      second:
        m_Texture: {fileID: 2800000, guid: 05f8de7f980ec4f4b972c38ad3db0ebb, type: 3}
        m_Scale: {x: 1, y: 1}
        m_Offset: {x: 0, y: 0}
    - first:
        name: _DiffuseAlphaTEX_copy_copy_copy_copy
      second:
        m_Texture: {fileID: 2800000, guid: 05f8de7f980ec4f4b972c38ad3db0ebb, type: 3}
        m_Scale: {x: 1, y: 1}
        m_Offset: {x: 0, y: 0}
    - first:
        name: _DistorsionTEX
      second:
        m_Texture: {fileID: 2800000, guid: ed022fea07aefa64192fa64c637f2690, type: 3}
        m_Scale: {x: 1, y: 1}
        m_Offset: {x: 0, y: 0}
    - first:
        name: _EmissionMap
      second:
        m_Texture: {fileID: 0}
        m_Scale: {x: 1, y: 1}
        m_Offset: {x: 0, y: 0}
    - first:
        name: _MainTex
      second:
        m_Texture: {fileID: 0}
        m_Scale: {x: 1, y: 1}
        m_Offset: {x: 0, y: 0}
    - first:
        name: _MetallicGlossMap
      second:
        m_Texture: {fileID: 0}
        m_Scale: {x: 1, y: 1}
        m_Offset: {x: 0, y: 0}
    - first:
        name: _NubeTEX
      second:
        m_Texture: {fileID: 2800000, guid: ae0049a4a1783f946ac225627cf79c28, type: 3}
        m_Scale: {x: 1, y: 1}
        m_Offset: {x: 0, y: 0}
    - first:
        name: _OcclusionMap
      second:
        m_Texture: {fileID: 0}
        m_Scale: {x: 1, y: 1}
        m_Offset: {x: 0, y: 0}
    - first:
        name: _ParallaxMap
      second:
        m_Texture: {fileID: 0}
        m_Scale: {x: 1, y: 1}
        m_Offset: {x: 0, y: 0}
    - first:
        name: _cable
      second:
        m_Texture: {fileID: 2800000, guid: c59fdc20aeaf2824d8e9b3d6a1c5aec7, type: 3}
        m_Scale: {x: 1, y: 1}
        m_Offset: {x: 0, y: 0}
    - first:
        name: _gradient
      second:
        m_Texture: {fileID: 2800000, guid: f93e75cbf3415fb448054077b7023c87, type: 3}
        m_Scale: {x: 0.1, y: 0.1}
        m_Offset: {x: 0, y: 0}
    - first:
        name: _node_1859
      second:
        m_Texture: {fileID: 0}
        m_Scale: {x: 1, y: 1}
        m_Offset: {x: 0, y: 0}
    - first:
        name: _node_1859_copy
      second:
        m_Texture: {fileID: 2800000, guid: ae0049a4a1783f946ac225627cf79c28, type: 3}
        m_Scale: {x: 1, y: 1}
        m_Offset: {x: 0, y: 0}
    - first:
        name: _node_5256
      second:
        m_Texture: {fileID: 2800000, guid: c7a5e1937cfd86d4bab16211d6faa818, type: 3}
        m_Scale: {x: 1, y: 1}
        m_Offset: {x: 0, y: 0}
    - first:
        name: _node_7943
      second:
        m_Texture: {fileID: 2800000, guid: 600e185cf40947845b6220297740efbb, type: 3}
        m_Scale: {x: 1, y: 1}
        m_Offset: {x: 0, y: 0}
    - first:
        name: _node_7943_copy
      second:
        m_Texture: {fileID: 2800000, guid: 600e185cf40947845b6220297740efbb, type: 3}
        m_Scale: {x: 1, y: 1}
        m_Offset: {x: 0, y: 0}
    - first:
        name: _noise
      second:
        m_Texture: {fileID: 2800000, guid: 28c7aad1372ff114b90d330f8a2dd938, type: 3}
        m_Scale: {x: 1, y: 1}
        m_Offset: {x: 0, y: 0}
    m_Floats:
    - first:
        name: _BumpScale
      second: 1
    - first:
        name: _Cutoff
      second: 0.5
    - first:
        name: _DepR
      second: 10
    - first:
        name: _DepR_copy
      second: 8
    - first:
        name: _DepR_copy_copy
      second: 7
    - first:
        name: _DepR_copy_copy_copy
      second: 6
    - first:
        name: _DepR_copy_copy_copy_copy
      second: 6
    - first:
        name: _DetailNormalMapScale
      second: 1
    - first:
        name: _DoNoTouchPLZ
      second: -3
    - first:
        name: _DstBlend
      second: 0
    - first:
        name: _GlossMapScale
      second: 1
    - first:
        name: _Glossiness
      second: 0.5
    - first:
        name: _GlossyReflections
      second: 1
    - first:
        name: _HeiR
      second: 0
    - first:
        name: _HeiR_copy
      second: 0
    - first:
        name: _HeiR_copy_copy
      second: 0
    - first:
        name: _HeiR_copy_copy_copy
      second: 0
    - first:
        name: _HeiR_copy_copy_copy_copy
      second: 0
    - first:
        name: _Metallic
      second: 0
    - first:
        name: _Mode
      second: 0
    - first:
        name: _OcclusionStrength
      second: 1
    - first:
        name: _Parallax
      second: 0.02
    - first:
        name: _RotaorNube
      second: -0.05
    - first:
        name: _SPEED
      second: 0.05
    - first:
        name: _SmoothnessTextureChannel
      second: 0
    - first:
        name: _SpecularHighlights
      second: 1
    - first:
        name: _SrcBlend
      second: 1
    - first:
        name: _UVSec
      second: 0
    - first:
        name: _You_Wrong_Clr
      second: 0
    - first:
        name: _You_Wrong_VO
      second: 0
    - first:
        name: _You_Wrong_VO_copy
      second: 1
    - first:
        name: _ZWrite
      second: 1
    - first:
        name: _density_copy_copy_copy
      second: 1
    - first:
        name: _fadepower_copy_copy_copy
      second: 5
    - first:
        name: _fresnel
      second: 0.5
    - first:
        name: _fresnel_copy
      second: 0.5
    - first:
        name: _fresnelonoff
      second: 0
    - first:
        name: _node_3403
      second: 0.02907673
    - first:
        name: _node_3403_copy
      second: 0.02907673
    - first:
        name: _opacity
      second: 1
    - first:
        name: _rotator_1
      second: 0.4988696
    - first:
        name: _rotator_2
      second: 0
    - first:
        name: _rotator_3
      second: 0
    - first:
        name: _rotator_4
      second: 0
    - first:
        name: _rotator_5
      second: 0
    - first:
        name: _slider1
      second: -0.6918517
    - first:
        name: _slider2
      second: 0.05921507
    - first:
        name: _slider3
      second: 0.3528411
    - first:
        name: _switchopacity
      second: 0
    - first:
        name: _time
      second: 2
    - first:
        name: _timenube
      second: 0.04200784
    - first:
        name: _timenube_copy
      second: 0.04200784
    - first:
        name: _u
      second: 1
    - first:
        name: _v
      second: 0.2
    - first:
        name: _you_win
      second: 0
    m_Colors:
    - first:
        name: _2color
      second: {r: 1, g: 0, b: 0, a: 1}
    - first:
        name: _2color_copy
      second: {r: 1, g: 0, b: 0, a: 1}
    - first:
        name: _Color
      second: {r: 0.5670831, g: 0.20206541, b: 0.8000001, a: 1}
    - first:
        name: _ColorNubeDark
      second: {r: 0.5490196, g: 0, b: 0.4431373, a: 1}
    - first:
        name: _ColorNubeLight
      second: {r: 1, g: 0, b: 0.8078432, a: 1}
    - first:
        name: _EmissionColor
      second: {r: 0, g: 0, b: 0, a: 1}
    - first:
        name: _color
      second: {r: 0.8206897, g: 0, b: 1, a: 1}
    - first:
        name: _node_1429
      second: {r: 0, g: 0.007843138, b: 0.6313726, a: 1}
    - first:
        name: _node_1429_copy
      second: {r: 1, g: 0, b: 0.9310346, a: 1}
    - first:
        name: _node_1641
      second: {r: 0, g: 1, b: 0.5034482, a: 1}
    - first:
        name: _node_2263_copy_copy_copy
      second: {r: 0.6172414, g: 1, b: 0.9324544, a: 0.8}
    - first:
        name: _node_5189
      second: {r: 0, g: 0.003921569, b: 0.5882353, a: 1}
    - first:
        name: _node_5189_copy
      second: {r: 1, g: 0, b: 0, a: 1}
    - first:
        name: _node_9110
      second: {r: 0, g: 0.006896734, b: 1, a: 1}
    - first:
        name: _node_940_copy_copy_copy
      second: {r: 0, g: 0, b: 0, a: -0.1}
