%YAML 1.1
%TAG !u! tag:unity3d.com,2011:
--- !u!21 &2100000
Material:
  serializedVersion: 6
  m_ObjectHideFlags: 0
  m_PrefabParentObject: {fileID: 0}
  m_PrefabInternal: {fileID: 0}
  m_Name: Stalagmite_Chiaro.MAT
  m_Shader: {fileID: 4800000, guid: 4de0e674cfa2f814a9e2bb1dd8723f36, type: 3}
  m_ShaderKeywords: 
  m_LightmapFlags: 5
  m_CustomRenderQueue: 3000
  stringTagMap: {}
  m_SavedProperties:
    serializedVersion: 2
    m_TexEnvs:
      data:
        first:
          name: _MainTex
        second:
          m_Texture: {fileID: 0}
          m_Scale: {x: 1, y: 1}
          m_Offset: {x: 0, y: 0}
      data:
        first:
          name: _BumpMap
        second:
          m_Texture: {fileID: 0}
          m_Scale: {x: 1, y: 1}
          m_Offset: {x: 0, y: 0}
      data:
        first:
          name: _DetailNormalMap
        second:
          m_Texture: {fileID: 0}
          m_Scale: {x: 1, y: 1}
          m_Offset: {x: 0, y: 0}
      data:
        first:
          name: _ParallaxMap
        second:
          m_Texture: {fileID: 0}
          m_Scale: {x: 1, y: 1}
          m_Offset: {x: 0, y: 0}
      data:
        first:
          name: _OcclusionMap
        second:
          m_Texture: {fileID: 0}
          m_Scale: {x: 1, y: 1}
          m_Offset: {x: 0, y: 0}
      data:
        first:
          name: _EmissionMap
        second:
          m_Texture: {fileID: 0}
          m_Scale: {x: 1, y: 1}
          m_Offset: {x: 0, y: 0}
      data:
        first:
          name: _DetailMask
        second:
          m_Texture: {fileID: 0}
          m_Scale: {x: 1, y: 1}
          m_Offset: {x: 0, y: 0}
      data:
        first:
          name: _DetailAlbedoMap
        second:
          m_Texture: {fileID: 0}
          m_Scale: {x: 1, y: 1}
          m_Offset: {x: 0, y: 0}
      data:
        first:
          name: _MetallicGlossMap
        second:
          m_Texture: {fileID: 0}
          m_Scale: {x: 1, y: 1}
          m_Offset: {x: 0, y: 0}
      data:
        first:
          name: _AlphaTEX
        second:
          m_Texture: {fileID: 2800000, guid: 600e185cf40947845b6220297740efbb, type: 3}
          m_Scale: {x: 1, y: 1}
          m_Offset: {x: 0, y: 0}
      data:
        first:
          name: _node_8437
        second:
          m_Texture: {fileID: 2800000, guid: 600e185cf40947845b6220297740efbb, type: 3}
          m_Scale: {x: 1, y: 1}
          m_Offset: {x: 0, y: 0}
    m_Floats:
      data:
        first:
          name: _SrcBlend
        second: 1
      data:
        first:
          name: _DstBlend
        second: 0
      data:
        first:
          name: _Cutoff
        second: 0.5
      data:
        first:
          name: _Parallax
        second: 0.02
      data:
        first:
          name: _ZWrite
        second: 1
      data:
        first:
          name: _Glossiness
        second: 0.5
      data:
        first:
          name: _BumpScale
        second: 1
      data:
        first:
          name: _OcclusionStrength
        second: 1
      data:
        first:
          name: _DetailNormalMapScale
        second: 1
      data:
        first:
          name: _UVSec
        second: 0
      data:
        first:
          name: _Mode
        second: 0
      data:
        first:
          name: _Metallic
        second: 0
      data:
        first:
          name: _outlinewidht
        second: 0.01
      data:
        first:
          name: _node_4997
        second: 0
      data:
        first:
          name: _OutlineOnOFF
        second: 0
      data:
        first:
          name: _OutlineOFF
        second: 0
      data:
        first:
          name: _node_9285
        second: 0
      data:
        first:
          name: _OutlineONOFF
        second: 0.01
      data:
        first:
          name: _OutlineValue
        second: 0
      data:
        first:
          name: _VValue
        second: 0.1
      data:
        first:
          name: _UValue
        second: 0.1
      data:
        first:
          name: _USpeed
        second: 0
      data:
        first:
          name: _VSpeed
        second: -0.25
      data:
        first:
          name: _node_5386
        second: 0
      data:
        first:
          name: _node_1520
        second: 0
    m_Colors:
      data:
        first:
          name: _EmissionColor
        second: {r: 0, g: 0, b: 0, a: 1}
      data:
        first:
          name: _Color
        second: {r: 0, g: 1, b: 0, a: 1}
      data:
        first:
          name: _main
        second: {r: 0.078431375, g: 0.078431375, b: 0.23529412, a: 1}
      data:
        first:
          name: _outlinecolor
        second: {r: 0, g: 1, b: 0, a: 1}
      data:
        first:
          name: _node_4897
        second: {r: 0.014942529, g: 0.014942529, b: 0.04482758, a: 1}
