%YAML 1.1
%TAG !u! tag:unity3d.com,2011:
--- !u!21 &2100000
Material:
  serializedVersion: 6
  m_ObjectHideFlags: 0
  m_PrefabParentObject: {fileID: 0}
  m_PrefabInternal: {fileID: 0}
  m_Name: TimeMachine_Scuro.MAT
  m_Shader: {fileID: 4800000, guid: fb96dfafb6fd36b47851371adae9c61e, type: 3}
  m_ShaderKeywords: 
  m_LightmapFlags: 5
  m_CustomRenderQueue: 2000
  stringTagMap: {}
  m_SavedProperties:
    serializedVersion: 2
    m_TexEnvs:
    - first:
        name: _BumpMap
      second:
        m_Texture: {fileID: 0}
        m_Scale: {x: 1, y: 1}
        m_Offset: {x: 0, y: 0}
    - first:
        name: _DetailAlbedoMap
      second:
        m_Texture: {fileID: 0}
        m_Scale: {x: 1, y: 1}
        m_Offset: {x: 0, y: 0}
    - first:
        name: _DetailMask
      second:
        m_Texture: {fileID: 0}
        m_Scale: {x: 1, y: 1}
        m_Offset: {x: 0, y: 0}
    - first:
        name: _DetailNormalMap
      second:
        m_Texture: {fileID: 0}
        m_Scale: {x: 1, y: 1}
        m_Offset: {x: 0, y: 0}
    - first:
        name: _EmissionMap
      second:
        m_Texture: {fileID: 0}
        m_Scale: {x: 1, y: 1}
        m_Offset: {x: 0, y: 0}
    - first:
        name: _MainTex
      second:
        m_Texture: {fileID: 0}
        m_Scale: {x: 1, y: 1}
        m_Offset: {x: 0, y: 0}
    - first:
        name: _MetallicGlossMap
      second:
        m_Texture: {fileID: 0}
        m_Scale: {x: 1, y: 1}
        m_Offset: {x: 0, y: 0}
    - first:
        name: _OcclusionMap
      second:
        m_Texture: {fileID: 0}
        m_Scale: {x: 1, y: 1}
        m_Offset: {x: 0, y: 0}
    - first:
        name: _ParallaxMap
      second:
        m_Texture: {fileID: 0}
        m_Scale: {x: 1, y: 1}
        m_Offset: {x: 0, y: 0}
    m_Floats:
    - first:
        name: _BumpScale
      second: 1
    - first:
        name: _Cutoff
      second: 0.5
    - first:
        name: _DetailNormalMapScale
      second: 1
    - first:
        name: _DstBlend
      second: 0
    - first:
        name: _Glossiness
      second: 0.5
    - first:
        name: _Metallic
      second: 0
    - first:
        name: _Mode
      second: 0
    - first:
        name: _OcclusionStrength
      second: 1
    - first:
        name: _Parallax
      second: 0.02
    - first:
        name: _SrcBlend
      second: 1
    - first:
        name: _UVSec
      second: 0
    - first:
        name: _ZWrite
      second: 1
    - first:
        name: _node_4545
      second: 0.05
    - first:
        name: _node_8920
      second: 0.01
    - first:
        name: _opacityvalue
      second: 0.5
    - first:
        name: _outlinewidht
      second: 0.01
    - first:
        name: _switchwireframetotoon
      second: 0.1172414
    m_Colors:
    - first:
        name: _Color
      second: {r: 0.05496999, g: 0.05496999, b: 0.05496999, a: 1}
    - first:
        name: _EmissionColor
      second: {r: 0, g: 0, b: 0, a: 1}
    - first:
        name: _basecolor
      second: {r: 0.07843138, g: 0.07843138, b: 0.2352941, a: 1}
    - first:
        name: _main
      second: {r: 0.039215688, g: 0.039215688, b: 0.11764706, a: 1}
    - first:
        name: _node_1541
      second: {r: 0.5, g: 0.5, b: 0.5, a: 1}
    - first:
        name: _node_3245
      second: {r: 0.7647059, g: 0, b: 0, a: 1}
    - first:
        name: _node_624
      second: {r: 0, g: 1, b: 0.7921569, a: 1}
    - first:
        name: _node_9587
      second: {r: 0, g: 1, b: 0.7931032, a: 1}
    - first:
        name: _outlinecolor
      second: {r: 0, g: 1, b: 0.7931032, a: 1}
    - first:
        name: _wireframe
      second: {r: 0.1172414, g: 1, b: 0, a: 1}
